[
{
"acceleration": 1.9999999999999998,
"curvature": 0.0,
"pose": {
"rotation": {
"radians": -1.7054602344879022
},
"translation": {
"x": 8.208781960784313,
"y": 1.695713960784314
}
},
"time": 0.0,
"velocity": 0.0
},
{
"acceleration": 2.0000000000000004,
"curvature": 1.5484681560619988,
"pose": {
"rotation": {
"radians": -1.6687910838214515
},
"translation": {
"x": 8.203257613761602,
"y": 1.6507268576484746
}
},
"time": 0.21289674642797607,
"velocity": 0.4257934928559521
},
{
"acceleration": 1.3307659111709442,
"curvature": 2.1520236695416823,
"pose": {
"rotation": {
"radians": -1.6263223160429343
},
"translation": {
"x": 8.201482033908835,
"y": 1.6279824388977815
}
},
"time": 0.2610338002487162,
"velocity": 0.5220676004974324
},
{
"acceleration": -0.6517337646323148,
"curvature": 2.615171595130362,
"pose": {
"rotation": {
"radians": -1.5711092101250819
},
"translation": {
"x": 8.20081851693071,
"y": 1.6049573628354166
}
},
"time": 0.3029196936786849,
"velocity": 0.5778079196329737
},
{
"acceleration": -0.25805669945191234,
"curvature": 2.918951457882849,
"pose": {
"rotation": {
"radians": -1.506045650583059
},
"translation": {
"x": 8.201558090034194,
"y": 1.5815806490341178
}
},
"time": 0.344366324568801,
"velocity": 0.5507957508516323
},
{
"acceleration": 0.03832169205080861,
"curvature": 3.0552774200336197,
"pose": {
"rotation": {
"radians": -1.4342735724065578
},
"translation": {
"x": 8.203953696807545,
"y": 1.5577920773630858
}
},
"time": 0.3882248439869211,
"velocity": 0.5394777660877447
},
{
"acceleration": 0.27139412236655286,
"curvature": 3.033871549824158,
"pose": {
"rotation": {
"radians": -1.3589896747398824
},
"translation": {
"x": 8.208221609617876,
"y": 1.533541768924981
}
},
"time": 0.4337933965955979,
"velocity": 0.5412240301280155
},
{
"acceleration": 0.4546859002969362,
"curvature": 2.882696954061415,
"pose": {
"rotation": {
"radians": -1.2831742304636802
},
"translation": {
"x": 8.214542842008703,
"y": 1.5087897669929058
}
},
"time": 0.4804488346718964,
"velocity": 0.5538860417983595
},
{
"acceleration": 0.5917226171877401,
"curvature": 2.641393051885446,
"pose": {
"rotation": {
"radians": -1.2093336173605986
},
"translation": {
"x": 8.223064561097503,
"y": 1.4835056179473973
}
},
"time": 0.5277039257390068,
"velocity": 0.5753722654238224
},
{
"acceleration": 0.682598261262603,
"curvature": 2.3514777392850235,
"pose": {
"rotation": {
"radians": -1.139339696569579
},
"translation": {
"x": 8.233901499973284,
"y": 1.4576679522134128
}
},
"time": 0.5752380007415069,
"velocity": 0.6034992526899
},
{
"acceleration": 0.7284357688024101,
"curvature": 2.04815524566324,
"pose": {
"rotation": {
"radians": -1.0743983806403206
},
"translation": {
"x": 8.247137370094125,
"y": 1.43126406519732
}
},
"time": 0.622894233814294,
"velocity": 0.6360293145237098
},
{
"acceleration": 0.7336849808605781,
"curvature": 1.7563338209201513,
"pose": {
"rotation": {
"radians": -1.0151252504867758
},
"translation": {
"x": 8.262826273684743,
"y": 1.4042894982238847
}
},
"time": 0.6706508407515017,
"velocity": 0.6708169352134092
},
{
"acceleration": 0.7062013055154428,
"curvature": 1.4905769220404084,
"pose": {
"rotation": {
"radians": -0.961678636635086
},
"translation": {
"x": 8.280994116134055,
"y": 1.3767476194732602
}
},
"time": 0.7185798904860546,
"velocity": 0.7059817591505704
},
{
"acceleration": 0.6232628418968496,
"curvature": 1.2572655617291413,
"pose": {
"rotation": {
"radians": -0.9139031226805443
},
"translation": {
"x": 8.30164001839272,
"y": 1.348649204917975
}
},
"time": 0.7668059639453173,
"velocity": 0.7400390751873853
},
{
"acceleration": 0.48917175254797896,
"curvature": 0.8885712005052699,
"pose": {
"rotation": {
"radians": -0.83389186760145
},
"translation": {
"x": 8.350237038334864,
"y": 1.290860396867341
}
},
"time": 0.8647930620103152,
"velocity": 0.8011107923966012
},
{
"acceleration": 0.36537479478377105,
"curvature": 0.6297120692011833,
"pose": {
"rotation": {
"radians": -0.771555583598635
},
"translation": {
"x": 8.408128283458682,
"y": 1.23114151330528
}
},
"time": 0.9655176191571482,
"velocity": 0.8503824005407365
},
{
"acceleration": 0.26975313389897043,
"curvature": 0.4497817123241704,
"pose": {
"rotation": {
"radians": -0.723365149719855
},
"translation": {
"x": 8.474486546143362,
"y": 1.169802698110356
}
},
"time": 1.0694607543196348,
"velocity": 0.8883606022199119
},
{
"acceleration": 0.2030249460026405,
"curvature": 0.3228946645417293,
"pose": {
"rotation": {
"radians": -0.686414240302103
},
"translation": {
"x": 8.548191657921615,
"y": 1.1072323897900365
}
},
"time": 1.1765519155593216,
"velocity": 0.9172487785771973
},
{
"acceleration": 0.16032423648403354,
"curvature": 0.23043709391181827,
"pose": {
"rotation": {
"radians": -0.6585138171476553
},
"translation": {
"x": 8.627875686201506,
"y": 1.0438839114643175
}
},
"time": 1.2862018130568034,
"velocity": 0.9395104430958187
},
{
"acceleration": 0.13705027721939855,
"curvature": 0.1595049428902151,
"pose": {
"rotation": {
"radians": -0.6381151847678469
},
"translation": {
"x": 8.711968130988286,
"y": 0.9802620608493617
}
},
"time": 1.397384255475608,
"velocity": 0.9573356832870435
},
{
"acceleration": 0.13128061240455857,
"curvature": 0.10084975958452466,
"pose": {
"rotation": {
"radians": -0.6242095625757198
},
"translation": {
"x": 8.798741121606227,
"y": 0.916909700241126
}
},
"time": 1.5087237033891454,
"velocity": 0.9725947854890487
},
{
"acceleration": 0.09817920313251384,
"curvature": 0.04708308845972857,
"pose": {
"rotation": {
"radians": -0.6162579159622382
},
"translation": {
"x": 8.886354613420465,
"y": 0.8543943464989958
}
},
"time": 1.618572421902386,
"velocity": 0.9870157925273229
},
{
"acceleration": -0.1774109778629832,
"curvature": -0.008976716343097612,
"pose": {
"rotation": {
"radians": -0.6141721237930367
},
"translation": {
"x": 8.972901584558823,
"y": 0.7932947610294114
}
},
"time": 1.7253403258211781,
"velocity": 0.9974981802541987
},
{
"acceleration": -0.24171205252219888,
"curvature": -0.07630175364586138,
"pose": {
"rotation": {
"radians": -0.6183661120682591
},
"translation": {
"x": 9.056453232633647,
"y": 0.7341875397695077
}
},
"time": 1.8288958661109254,
"velocity": 0.9791262905882651
},
{
"acceleration": -0.37030133844699337,
"curvature": -0.16899232919753174,
"pose": {
"rotation": {
"radians": -0.6299133296519133
},
"translation": {
"x": 9.135104171463649,
"y": 0.6776337031707378
}
},
"time": 1.929072383151633,
"velocity": 0.9549124190398306
},
{
"acceleration": -0.6167720214624111,
"curvature": -0.3133180067729184,
"pose": {
"rotation": {
"radians": -0.650893019524865
},
"translation": {
"x": 9.207017627795727,
"y": 0.6241652861825111
}
},
"time": 2.0246888314151152,
"velocity": 0.9195055202703154
},
{
"acceleration": -1.064052074290359,
"curvature": -0.5649773463838469,
"pose": {
"rotation": {
"radians": -0.6851179316599273
},
"translation": {
"x": 9.270470638026817,
"y": 0.5742719282358184
}
},
"time": 2.1152235339031917,
"velocity": 0.8636662488042464
},
{
"acceleration": -1.9107742202830107,
"curvature": -1.0568105367058649,
"pose": {
"rotation": {
"radians": -0.7397154311113451
},
"translation": {
"x": 9.32389924492571,
"y": 0.5283874632268715
}
},
"time": 2.2013360012247896,
"velocity": 0.7720380993284394
},
{
"acceleration": -1.9999999999999991,
"curvature": -1.4867944153844286,
"pose": {
"rotation": {
"radians": -0.7786032114292835
},
"translation": {
"x": 9.346420261426402,
"y": 0.5070655792194838
}
},
"time": 2.243730714774668,
"velocity": 0.6910313736010486
},
{
"acceleration": -2.0,
"curvature": -2.1460107683438387,
"pose": {
"rotation": {
"radians": -0.828778149345702
},
"translation": {
"x": 9.3659436943549,
"y": 0.4868765095007248
}
},
"time": 2.2870938480731526,
"velocity": 0.6043051070040795
},
{
"acceleration": -1.9999999999999976,
"curvature": -3.1908157599468754,
"pose": {
"rotation": {
"radians": -0.8945102027968419
},
"translation": {
"x": 9.38233889626458,
"y": 0.46785281635304976
}
},
"time": 2.3319870893668364,
"velocity": 0.514518624416712
},
{
"acceleration": -2.0,
"curvature": -3.93679161317014,
"pose": {
"rotation": {
"radians": -0.9350872406701859
},
"translation": {
"x": 9.38932757924884,
"y": 0.45878653193226526
}
},
"time": 2.3552910252521833,
"velocity": 0.46791075264601856
},
{
"acceleration": -2.0,
"curvature": -4.893922859838022,
"pose": {
"rotation": {
"radians": -0.9821391339585092
},
"translation": {
"x": 9.395493631992405,
"y": 0.450021059834917
}
},
"time": 2.379441406620173,
"velocity": 0.41960998991003884
},
{
"acceleration": -1.8975911461988253,
"curvature": -6.123841088832194,
"pose": {
"rotation": {
"radians": -1.0369194903030674
},
"translation": {
"x": 9.40082613374068,
"y": 0.44155871346828857
}
},
"time": 2.404812694958066,
"velocity": 0.36886741323425254
},
{
"acceleration": -1.615056985966091,
"curvature": -7.6981483862202085,
"pose": {
"rotation": {
"radians": -1.100894495062465
},
"translation": {
"x": 9.405315491056482,
"y": 0.43340137871778595
}
},
"time": 2.4319492105177614,
"velocity": 0.31737340156948823
},
{
"acceleration": -1.3791168831651779,
"curvature": -9.688082803331335,
"pose": {
"rotation": {
"radians": -1.1757043088172137
},
"translation": {
"x": 9.408953481957484,
"y": 0.42555050085122303
}
},
"time": 2.4614234623251274,
"velocity": 0.2697708052818777
},
{
"acceleration": -1.2196226799358758,
"curvature": -10.855061690581127,
"pose": {
"rotation": {
"radians": -1.2177038351823661
},
"translation": {
"x": 9.410451031502083,
"y": 0.4217403111914608
}
},
"time": 2.477238322786053,
"velocity": 0.24796026421531392
},
{
"acceleration": -1.062637282411672,
"curvature": -12.138089217615258,
"pose": {
"rotation": {
"radians": -1.2630355479031143
},
"translation": {
"x": 9.411733300053616,
"y": 0.4180070714230961
}
},
"time": 2.493834869953064,
"velocity": 0.22771873888180183
},
{
"acceleration": -0.9115110942292868,
"curvature": -13.530002654933169,
"pose": {
"rotation": {
"radians": -1.3118716634913508
},
"translation": {
"x": 9.412799665240914,
"y": 0.41435083244921866
}
},
"time": 2.511268939152932,
"velocity": 0.20919264696587703
},
{
"acceleration": -0.7688106517392921,
"curvature": -15.01390134289368,
"pose": {
"rotation": {
"radians": -1.3643406648136094
},
"translation": {
"x": 9.413649598684499,
"y": 0.41077161517887095
}
},
"time": 2.529585302559569,
"velocity": 0.19249707851479214
},
{
"acceleration": -0.6362043525343709,
"curvature": -16.56038709547458,
"pose": {
"rotation": {
"radians": -1.4205062996321016
},
"translation": {
"x": 9.414282667375886,
"y": 0.40726941011781026
}
},
"time": 2.548811894541007,
"velocity": 0.177715469802817
},
{
"acceleration": -0.5144336984926026,
"curvature": -18.12536966699063,
"pose": {
"rotation": {
"radians": -1.4803439210772256
},
"translation": {
"x": 9.41469853505687,
"y": 0.40384417695926
}
},
"time": 2.5689532624929363,
"velocity": 0.16490144384580352
},
{
"acceleration": -0.40336031072714534,
"curvature": -19.649337593096448,
"pose": {
"rotation": {
"radians": -1.5437163243472443
},
"translation": {
"x": 9.414896963598824,
"y": 0.4004958441746762
}
},
"time": 2.589983826138846,
"velocity": 0.15408261320805422
},
{
"acceleration": -0.302070128930482,
"curvature": -21.05914983257288,
"pose": {
"rotation": {
"radians": -1.610352562407322
},
"translation": {
"x": 9.414877814381999,
"y": 0.3972243086045033
}
},
"time": 2.6118419019813146,
"velocity": 0.1452659329443386
},
{
"acceleration": -0.2090124809156741,
"curvature": -22.273214438431665,
"pose": {
"rotation": {
"radians": -1.6798343509893827
},
"translation": {
"x": 9.414641049674806,
"y": 0.39402943504892995
}
},
"time": 2.6344257736719556,
"velocity": 0.13844401991099725
},
{
"acceleration": -0.12215317187025643,
"curvature": -23.21020947085528,
"pose": {
"rotation": {
"radians": -1.7515950167115846
},
"translation": {
"x": 9.41418673401312,
"y": 0.39091105585865193
}
},
"time": 2.657593199508102,
"velocity": 0.13360173876055448
},
{
"acceleration": -0.03912623784349742,
"curvature": -23.800299043992673,
"pose": {
"rotation": {
"radians": -1.8249348958001266
},
"translation": {
"x": 9.413515035579577,
"y": 0.38786897052562974
}
},
"time": 2.681165470311546,
"velocity": 0.13072231111372912
},
{
"acceleration": 0.04262343068725025,
"curvature": -23.99649455143799,
"pose": {
"rotation": {
"radians": -1.8990543863545424
},
"translation": {
"x": 9.412626227582853,
"y": 0.3849029452738453
}
},
"time": 2.7049363815733134,
"velocity": 0.12979224478594453
},
{
"acceleration": 0.12570699343275435,
"curvature": -23.783093837159672,
"pose": {
"rotation": {
"radians": -1.9731019358140796
},
"translation": {
"x": 9.411520689636978,
"y": 0.38201271265006564
}
},
"time": 2.728685381466949,
"velocity": 0.13080450863680243
},
{
"acceleration": 0.2126632377807177,
"curvature": -23.178595798498293,
"pose": {
"rotation": {
"radians": -2.0462303279193
},
"translation": {
"x": 9.410198909140618,
"y": 0.3791979711145945
}
},
"time": 2.7521930462870476,
"velocity": 0.1337595865039619
},
{
"acceleration": 0.3058281674290076,
"curvature": -22.232144843458013,
"pose": {
"rotation": {
"radians": -2.117652260071096
},
"translation": {
"x": 9.408661482656376,
"y": 0.3764583846320413
}
},
"time": 2.775256359216017,
"velocity": 0.13866430530538643
},
{
"acceleration": 0.4071979587299159,
"curvature": -21.014678368442734,
"pose": {
"rotation": {
"radians": -2.1866864099215295
},
"translation": {
"x": 9.406909117290075,
"y": 0.37379358226206527
}
},
"time": 2.797701327084484,
"velocity": 0.14552860869660256
},
{
"acceleration": 0.5182858777109755,
"curvature": -19.607491362397234,
"pose": {
"rotation": {
"radians": -2.252787885761168
},
"translation": {
"x": 9.404942632070075,
"y": 0.3712031577501502
}
},
"time": 2.819391236057457,
"velocity": 0.154360695355435
},
{
"acceleration": 0.6399807610149619,
"curvature": -18.09124405132279,
"pose": {
"rotation": {
"radians": -2.3155609728794095
},
"translation": {
"x": 9.40276295932654,
"y": 0.36868666911835124
}
},
"time": 2.8402299842530745,
"velocity": 0.16516112425439855
},
{
"acceleration": 0.7724214844911133,
"curvature": -16.537621270440635,
"pose": {
"rotation": {
"radians": -2.374755886888906
},
"translation": {
"x": 9.400371146070752,
"y": 0.3662436382560603
}
},
"time": 2.860160995574943,
"velocity": 0.1779165880479659
},
{
"acceleration": 0.9149064245449775,
"curvature": -15.004538124014582,
"pose": {
"rotation": {
"radians": -2.430253706348681
},
"translation": {
"x": 9.397768355374401,
"y": 0.3638735505107622
}
},
"time": 2.879162899198766,
"velocity": 0.19259406665323653
},
{
"acceleration": 1.0658576052609887,
"curvature": -13.5346364176063,
"pose": {
"rotation": {
"radians": -2.482044462609137
},
"translation": {
"x": 9.394955867748873,
"y": 0.36157585427879546
}
},
"time": 2.8972433698151656,
"velocity": 0.2091360053789773
},
{
"acceleration": 1.3044720221061874,
"curvature": -12.156173100785043,
"pose": {
"rotation": {
"radians": -2.5302028608622362
},
"translation": {
"x": 9.391935082524553,
"y": 0.3593499605961066
}
},
"time": 2.9144323694290724,
"velocity": 0.22745703134428802
},
{
"acceleration": 1.620603278974002,
"curvature": -9.728605410664544,
"pose": {
"rotation": {
"radians": -2.616207458452079
},
"translation": {
"x": 9.385274818971817,
"y": 0.3551110357649616
}
},
"time": 2.946240110761029,
"velocity": 0.26894933999821613
},
{
"acceleration": 1.9094698982241887,
"curvature": -7.753332716583221,
"pose": {
"rotation": {
"radians": -2.6897487092373664
},
"translation": {
"x": 9.377801188152366,
"y": 0.3511513015459631
}
},
"time": 2.97516673503233,
"velocity": 0.31582792214193484
},
{
"acceleration": 2.0000000000000115,
"curvature": -6.186208298649294,
"pose": {
"rotation": {
"radians": -2.7525131065061426
},
"translation": {
"x": 9.369529802881141,
"y": 0.34746465951008876
}
},
"time": 3.0017100592202937,
"velocity": 0.3665116006776573
},
{
"acceleration": 1.9999999999999936,
"curvature": -4.9575038739656865,
"pose": {
"rotation": {
"radians": -2.8061257725721958
},
"translation": {
"x": 9.360478309489288,
"y": 0.3440443741749295
}
},
"time": 3.026441851410108,
"velocity": 0.41597518505728653
},
{
"acceleration": 2.0000000000000013,
"curvature": -3.2452461769031045,
"pose": {
"rotation": {
"radians": -2.8914613630738684
},
"translation": {
"x": 9.34011601607379,
"y": 0.3379726678358992
}
},
"time": 3.0724367386122067,
"velocity": 0.507964959461484
},
{
"acceleration": 2.000000000000001,
"curvature": -2.1831148314938233,
"pose": {
"rotation": {
"radians": -2.9548051326253746
},
"translation": {
"x": 9.316897826101059,
"y": 0.33286905996465244
}
},
"time": 3.1155730692024637,
"velocity": 0.5942376206419978
},
{
"acceleration": 1.96569254203723,
"curvature": -1.5027034582834824,
"pose": {
"rotation": {
"radians": -3.002324591319253
},
"translation": {
"x": 9.291042618820544,
"y": 0.3286553970168349
}
},
"time": 3.1567971297027806,
"velocity": 0.6766857416426318
},
{
"acceleration": 1.1920644217106624,
"curvature": -0.731550761877763,
"pose": {
"rotation": {
"radians": -3.064907518006354
},
"translation": {
"x": 9.23248194899073,
"y": 0.3225276224353504
}
},
"time": 3.234940810635168,
"velocity": 0.8302921924587623
},
{
"acceleration": 1.110439887145827,
"curvature": -0.312389599564273,
"pose": {
"rotation": {
"radians": -3.0979067984988697
},
"translation": {
"x": 9.166945932772663,
"y": 0.318727571739557
}
},
"time": 3.3099641870215937,
"velocity": 0.9197248902456284
},
{
"acceleration": -1.878385576576713,
"curvature": 5.962900060934182e-14,
"pose": {
"rotation": {
"radians": -3.1085468365708255
},
"translation": {
"x": 9.09760266666667,
"y": 0.316190156862727
}
},
"time": 3.3822554570701566,
"velocity": 0.9999999999999833
},
{
"acceleration": -0.4532968595300699,
"curvature": -0.600383640013366,
"pose": {
"rotation": {
"radians": -3.1319338743281495
},
"translation": {
"x": 9.026642200045965,
"y": 0.3144204389340892
}
},
"time": 3.4587308427681007,
"velocity": 0.8563497385418244
},
{
"acceleration": 0.13856705348222983,
"curvature": -0.8125058749093961,
"pose": {
"rotation": {
"radians": 3.0947806306786165
},
"translation": {
"x": 8.950399078217934,
"y": 0.3157361809012098
}
},
"time": 3.5499805515495866,
"velocity": 0.8149865321181433
},
{
"acceleration": 0.2898929477817076,
"curvature": -0.7356866374174369,
"pose": {
"rotation": {
"radians": 3.0268950334430396
},
"translation": {
"x": 8.864584243202861,
"y": 0.32273184180871084
}
},
"time": 3.6546937225259772,
"velocity": 0.8294963276811227
},
{
"acceleration": 0.2584944733392876,
"curvature": -0.5650243652308795,
"pose": {
"rotation": {
"radians": 2.962049407517638
},
"translation": {
"x": 8.765924924217073,
"y": 0.33749685617364644
}
},
"time": 3.772530745825636,
"velocity": 0.8636564497232826
},
{
"acceleration": 0.20238803267241662,
"curvature": -0.40737550412651646,
"pose": {
"rotation": {
"radians": 2.90605130700894
},
"translation": {
"x": 8.652090236915466,
"y": 0.36164930802662365
}
},
"time": 3.904657786150036,
"velocity": 0.8978105594258171
},
{
"acceleration": 0.16479181279188376,
"curvature": -0.34377994888913244,
"pose": {
"rotation": {
"radians": 2.88168793117337
},
"translation": {
"x": 8.58899296630002,
"y": 0.3776308763431082
}
},
"time": 3.976573176117126,
"velocity": 0.912365373720126
},
{
"acceleration": 0.13179460927029454,
"curvature": -0.290571402592848,
"pose": {
"rotation": {
"radians": 2.859585974169056
},
"translation": {
"x": 8.521616782634023,
"y": 0.3963696049529064
}
},
"time": 4.05270052151356,
"velocity": 0.9249105369710383
},
{
"acceleration": 0.10426283777261386,
"curvature": -0.24668137481245758,
"pose": {
"rotation": {
"radians": 2.839540194310688
},
"translation": {
"x": 8.449902099347867,
"y": 0.41795018250696003
}
},
"time": 4.133210184157965,
"velocity": 0.9355212765017409
},
{
"acceleration": 0.08199369785531789,
"curvature": -0.21077256087025437,
"pose": {
"rotation": {
"radians": 2.821325791062475
},
"translation": {
"x": 8.373834247632328,
"y": 0.442434152133516
}
},
"time": 4.218226210789298,
"velocity": 0.9443852886944757
},
{
"acceleration": 0.0643162702227901,
"curvature": -0.1815187923971663,
"pose": {
"rotation": {
"radians": 2.804719350416189
},
"translation": {
"x": 8.293441151414893,
"y": 0.46986096375190556
}
},
"time": 4.307822798752352,
"velocity": 0.9517316442567858
},
{
"acceleration": 0.050430149681694444,
"curvature": -0.15773043398286105,
"pose": {
"rotation": {
"radians": 2.789510035371227
},
"translation": {
"x": 8.208791002336088,
"y": 0.500249026386336
}
},
"time": 4.402023679829457,
"velocity": 0.9577902935793658
},
{
"acceleration": 0.03957240448000328,
"curvature": -0.13839573090652446,
"pose": {
"rotation": {
"radians": 2.775504709803317
},
"translation": {
"x": 8.119989934725812,
"y": 0.5335967604796714
}
},
"time": 4.500803317459726,
"velocity": 0.9627717654905639
},
{
"acceleration": 0.031084840225748683,
"curvature": -0.12268051397465561,
"pose": {
"rotation": {
"radians": 2.762529473068853
},
"translation": {
"x": 8.027179700579657,
"y": 0.5698836502072169
}
},
"time": 4.604089172283812,
"velocity": 0.9668590351147255
},
{
"acceleration": 0.024429297054416804,
"curvature": -0.10990990780987928,
"pose": {
"rotation": {
"radians": 2.7504291892188464
},
"translation": {
"x": 7.930535344535242,
"y": 0.6090712957905042
}
},
"time": 4.711764558508318,
"velocity": 0.97020610729176
},
{
"acceleration": 0.01917913256077289,
"curvature": -0.09954434895478437,
"pose": {
"rotation": {
"radians": 2.73906598422149
},
"translation": {
"x": 7.830262878848542,
"y": 0.6511044658110752
}
},
"time": 4.823671797646491,
"velocity": 0.9729399224792061
},
{
"acceleration": 0.015001998868530597,
"curvature": -0.09115581252993178,
"pose": {
"rotation": {
"radians": 2.7283172873293577
},
"translation": {
"x": 7.726596958370216,
"y": 0.6959121495242675
}
},
"time": 4.939615496570257,
"velocity": 0.9751636220504514
},
{
"acceleration": 0.011641272944613035,
"curvature": -0.08440672261618946,
"pose": {
"rotation": {
"radians": 2.718073742982071
},
"translation": {
"x": 7.619798555521934,
"y": 0.7434086091729979
}
},
"time": 5.0593658527199326,
"velocity": 0.9769601167579149
},
{
"acceleration": 0.008899270808848198,
"curvature": -0.07903229651533235,
"pose": {
"rotation": {
"radians": 2.7082371668876326
},
"translation": {
"x": 7.510152635272709,
"y": 0.7934944323015474
}
},
"time": 5.182661935800979,
"velocity": 0.9783954401140631
},
{
"acceleration": 0.0066232421729491685,
"curvature": -0.07482627050798231,
"pose": {
"rotation": {
"radians": 2.698718628826546
},
"translation": {
"x": 7.397965830115223,
"y": 0.8460575840693458
}
},
"time": 5.309214923000565,
"velocity": 0.9795216694188209
},
{
"acceleration": 0.005143177615145048,
"curvature": -0.07162963159814167,
"pose": {
"rotation": {
"radians": 2.6894366918261374
},
"translation": {
"x": 7.2835641150421555,
"y": 0.9009744595647557
}
},
"time": 5.438711280801476,
"velocity": 0.9803793551570512
},
{
"acceleration": 0.0042493782792592414,
"curvature": -0.07037086897766953,
"pose": {
"rotation": {
"radians": 2.6848606507619865
},
"translation": {
"x": 7.225639250263541,
"y": 0.9292740124519661
}
},
"time": 5.5044584110336165,
"velocity": 0.9807175043255212
},
{
"acceleration": 0.0034133381871786377,
"curvature": -0.0693218932514161,
"pose": {
"rotation": {
"radians": 2.6803158076184728
},
"translation": {
"x": 7.167290482522515,
"y": 0.9581109361188567
}
},
"time": 5.570814250632834,
"velocity": 0.9809994753890161
},
{
"acceleration": 0.002625631581860705,
"curvature": -0.06847257822956067,
"pose": {
"rotation": {
"radians": 2.675793398804924
},
"translation": {
"x": 7.108562963409184,
"y": 0.987466994477467
}
},
"time": 5.637734037510579,
"velocity": 0.9812278952530438
},
{
"acceleration": 0.001877694188035623,
"curvature": -0.06781447506432697,
"pose": {
"rotation": {
"radians": 2.6712848522920676
},
"translation": {
"x": 7.049502617477965,
"y": 1.0173234256192307
}
},
"time": 5.7051720449304755,
"velocity": 0.9814049626151432
},
{
"acceleration": 0.0011616757553233664,
"curvature": -0.06734069486244164,
"pose": {
"rotation": {
"radians": 2.666781747769922
},
"translation": {
"x": 6.990156069590597,
"y": 1.0476609746997791
}
},
"time": 5.773081676125271,
"velocity": 0.9815324761349493
},
{
"acceleration": 0.00047030784636774834,
"curvature": -0.06704581158118318,
"pose": {
"rotation": {
"radians": 2.6622757779564807
},
"translation": {
"x": 6.930570572259153,
"y": 1.0784599268237471
}
},
"time": 5.841415558612544,
"velocity": 0.9816118579495019
},
{
"acceleration": -0.00020321574328311653,
"curvature": -0.06692578363198423,
"pose": {
"rotation": {
"radians": 2.6577587108250533
},
"translation": {
"x": 6.870793932989046,
"y": 1.109700139929581
}
},
"time": 5.910125638295222,
"velocity": 0.9816441728391012
},
{
"acceleration": -0.0008653483110672908,
"curvature": -0.06697789288837429,
"pose": {
"rotation": {
"radians": 2.653222352516778
},
"translation": {
"x": 6.810874441622042,
"y": 1.1413610776743441
}
},
"time": 5.979163273433604,
"velocity": 0.9816301433047621
},
{
"acceleration": -0.0015222914903732904,
"curvature": -0.06720070005382756,
"pose": {
"rotation": {
"radians": 2.6486585107040574
},
"translation": {
"x": 6.750860797679271,
"y": 1.1734218423185183
}
},
"time": 6.0484793285772405,
"velocity": 0.9815701607735137
},
{
"acceleration": -0.002180090407126379,
"curvature": -0.06759401559108957,
"pose": {
"rotation": {
"radians": 2.644058958169979
},
"translation": {
"x": 6.690802037704236,
"y": 1.2058612076108162
}
},
"time": 6.118024268542785,
"velocity": 0.9814642931032056
},
{
"acceleration": -0.002844724603999034,
"curvature": -0.06815888564971757,
"pose": {
"rotation": {
"radians": 2.639415396367742
},
"translation": {
"x": 6.630747462605822,
"y": 1.2386576516729813
}
},
"time": 6.18774825253011,
"velocity": 0.9813122885145682
},
{
"acceleration": -0.0035221964746768577,
"curvature": -0.06889759265519498,
"pose": {
"rotation": {
"radians": 2.6347194187225695
},
"translation": {
"x": 6.570746565001308,
"y": 1.2717893898845984
}
},
"time": 6.25760122846572,
"velocity": 0.9811135760352616
},
{
"acceleration": -0.0042186188690834766,
"curvature": -0.06981367044359124,
"pose": {
"rotation": {
"radians": 2.6299624734362825
},
"translation": {
"x": 6.51084895655938,
"y": 1.3052344077678946
}
},
"time": 6.327533027665889,
"velocity": 0.980867262498651
},
{
"acceleration": -0.00494030347676085,
"curvature": -0.07091193404295469,
"pose": {
"rotation": {
"radians": 2.6251358255515456
},
"translation": {
"x": 6.451104295343136,
"y": 1.3389704938725489
}
},
"time": 6.39749345991516,
"velocity": 0.980572126099075
},
{
"acceleration": -0.0056938515670175265,
"curvature": -0.07219852441909878,
"pose": {
"rotation": {
"radians": 2.620230518028844
},
"translation": {
"x": 6.391562213153095,
"y": 1.3729752726604971
}
},
"time": 6.467432409056972,
"velocity": 0.9802266064654687
},
{
"acceleration": -0.0064862486588994775,
"curvature": -0.07368096872166885,
"pose": {
"rotation": {
"radians": 2.61523733158441
},
"translation": {
"x": 6.332272242870218,
"y": 1.4072262373907352
}
},
"time": 6.5372999291969816,
"velocity": 0.9798287911764358
},
{
"acceleration": -0.00732496470670342,
"curvature": -0.0753682567887884,
"pose": {
"rotation": {
"radians": 2.610146743031806
},
"translation": {
"x": 6.273283745798906,
"y": 1.441700783004129
}
},
"time": 6.607046341623112,
"velocity": 0.9793763986023738
},
{
"acceleration": -0.008218061413752397,
"curvature": -0.07727093489724708,
"pose": {
"rotation": {
"radians": 2.604948881863838
},
"translation": {
"x": 6.214645839010018,
"y": 1.4763762390082178
}
},
"time": 6.676622332549959,
"velocity": 0.9788667569244007
},
{
"acceleration": -0.009174308322283744,
"curvature": -0.07940121798184441,
"pose": {
"rotation": {
"radians": 2.5996334848052225
},
"translation": {
"x": 6.156407322683877,
"y": 1.5112299023620182
}
},
"time": 6.745979051799739,
"velocity": 0.9782967791461497
},
{
"acceleration": -0.010203309361267088,
"curvature": -0.08177312179327642,
"pose": {
"rotation": {
"radians": 2.5941898480603243
},
"translation": {
"x": 6.0986166074532795,
"y": 1.5462390703608335
}
},
"time": 6.815068212535936,
"velocity": 0.977662933883828
},
{
"acceleration": -0.01131564155666614,
"curvature": -0.08440261671913321,
"pose": {
"rotation": {
"radians": 2.588606776974971
},
"translation": {
"x": 6.041321641746513,
"y": 1.5813810735210598
}
},
"time": 6.8838421921705955,
"velocity": 0.97696121169361
},
{
"acceleration": -0.012523007603098687,
"curvature": -0.08730780525634117,
"pose": {
"rotation": {
"radians": 2.5828725328274365
},
"translation": {
"x": 5.984569839130362,
"y": 1.6166333084649853
}
},
"time": 6.952254134570311,
"velocity": 0.9761870866752196
},
{
"acceleration": -0.013838403941562272,
"curvature": -0.0905091253931924,
"pose": {
"rotation": {
"radians": 2.576974776462254
},
"translation": {
"x": 5.928408005653113,
"y": 1.6519732708056045
}
},
"time": 7.020258053689866,
"velocity": 0.9753354730790449
},
{
"acceleration": -0.015276305854492142,
"curvature": -0.09402958243019405,
"pose": {
"rotation": {
"radians": 2.5709005084827625
},
"translation": {
"x": 5.872882267187569,
"y": 1.687378588031418
}
},
"time": 7.08780893876556,
"velocity": 0.9744006766447574
},
{
"acceleration": -0.01685287083850584,
"curvature": -0.09789501203334304,
"pose": {
"rotation": {
"radians": 2.56463600572589
},
"translation": {
"x": 5.818037996774066,
"y": 1.7228270523912421
}
},
"time": 7.154862861202182,
"velocity": 0.9733763404168722
},
{
"acceleration": -0.018586161091543076,
"curvature": -0.1021343775587945,
"pose": {
"rotation": {
"radians": 2.5581667537576958
},
"translation": {
"x": 5.763919741963477,
"y": 1.7582966537790101
}
},
"time": 7.221377083287371,
"velocity": 0.9722553848231468
},
{
"acceleration": -0.020496385285233412,
"curvature": -0.10678010489590292,
"pose": {
"rotation": {
"radians": 2.5514773751534308
},
"translation": {
"x": 5.710571152160215,
"y": 1.793765612618584
}
},
"time": 7.287310168864564,
"velocity": 0.9710299418733466
},
{
"acceleration": -0.023766385271043498,
"curvature": -0.11186845821996068,
"pose": {
"rotation": {
"radians": 2.5445515533647125
},
"translation": {
"x": 5.658034905965259,
"y": 1.8292124127485545
}
},
"time": 7.352622096089012,
"velocity": 0.9696912834492332
},
{
"acceleration": -0.028954846058010627,
"curvature": -0.12353985921185132,
"pose": {
"rotation": {
"radians": 2.5299201296919023
},
"translation": {
"x": 5.55556486884502,
"y": 1.899954986616546
}
},
"time": 7.48123427725691,
"velocity": 0.9666346368010477
},
{
"acceleration": -0.03535477718486002,
"curvature": -0.137532638359178,
"pose": {
"rotation": {
"radians": 2.5141199870380113
},
"translation": {
"x": 5.456828882376127,
"y": 1.970358764008962
}
},
"time": 7.606922811493053,
"velocity": 0.9629953446409831
},
{
"acceleration": -0.04327788623601721,
"curvature": -0.15432434160846248,
"pose": {
"rotation": {
"radians": 2.4969779712916376
},
"translation": {
"x": 5.362126015429524,
"y": 2.040264452815048
}
},
"time": 7.729430601038463,
"velocity": 0.9586641090381954
},
{
"acceleration": -0.05310052472696974,
"curvature": -0.17450685273264163,
"pose": {
"rotation": {
"radians": 2.4782970895621
},
"translation": {
"x": 5.271732828950079,
"y": 2.109520132501106
}
},
"time": 7.848534798801783,
"velocity": 0.9535095311171624
},
{
"acceleration": -0.06526260995928465,
"curvature": -0.1988102989701642,
"pose": {
"rotation": {
"radians": 2.4578532070760324
},
"translation": {
"x": 5.185901050932899,
"y": 2.177982306424271
}
},
"time": 7.9640509384483655,
"velocity": 0.947375563487495
},
{
"acceleration": -0.08025134025474696,
"curvature": -0.22812862277024093,
"pose": {
"rotation": {
"radians": 2.4353918611161944
},
"translation": {
"x": 5.104855251399673,
"y": 2.245516954146308
}
},
"time": 8.075837125024295,
"velocity": 0.9400801051941543
},
{
"acceleration": -0.09855661515440554,
"curvature": -0.2635433869966339,
"pose": {
"rotation": {
"radians": 2.4106256311038425
},
"translation": {
"x": 5.028790517374974,
"y": 2.3120005837473814
}
},
"time": 8.183798164878908,
"velocity": 0.9314160870505255
},
{
"acceleration": -0.12057886778005482,
"curvature": -0.3063386913333274,
"pose": {
"rotation": {
"radians": 2.3832328181502644
},
"translation": {
"x": 4.957870127862624,
"y": 2.3773212841398506
}
},
"time": 8.28788941626701,
"velocity": 0.9211572056465278
},
{
"acceleration": -0.1464648013974159,
"curvature": -0.357993793158221,
"pose": {
"rotation": {
"radians": 2.352858665118549
},
"translation": {
"x": 4.892223228821996,
"y": 2.441379777382048
}
},
"time": 8.388119992275188,
"velocity": 0.909071516274519
},
{
"acceleration": -0.1758477992036573,
"curvature": -0.42013002128428373,
"pose": {
"rotation": {
"radians": 2.3191210411244914
},
"translation": {
"x": 4.831942508144348,
"y": 2.504090470992068
}
},
"time": 8.484554728272188,
"velocity": 0.8949472218189061
},
{
"acceleration": -0.20748769739255124,
"curvature": -0.49437408097051694,
"pose": {
"rotation": {
"radians": 2.28162345268195
},
"translation": {
"x": 4.777081870629153,
"y": 2.5653825102615517
}
},
"time": 8.57731402490127,
"velocity": 0.8786357036510029
},
{
"acceleration": -0.23885177995326062,
"curvature": -0.5820819971230365,
"pose": {
"rotation": {
"radians": 2.2399793772674834
},
"translation": {
"x": 4.727654112960446,
"y": 2.625200830569465
}
},
"time": 8.666570304281233,
"velocity": 0.8601161237646281
},
{
"acceleration": -0.2657589333847119,
"curvature": -0.6838530522937317,
"pose": {
"rotation": {
"radians": 2.1938529977875634
},
"translation": {
"x": 4.683628598683111,
"y": 2.683507209695893
}
},
"time": 8.752539434218974,
"velocity": 0.8395822440579654
},
{
"acceleration": -0.28229295038849755,
"curvature": -0.7987680854359042,
"pose": {
"rotation": {
"radians": 2.1430218230066598
},
"translation": {
"x": 4.644928933179256,
"y": 2.7402813201358116
}
},
"time": 8.835465247675572,
"velocity": 0.8175439683236807
},
{
"acceleration": -0.28119674533029826,
"curvature": -0.9233438954983296,
"pose": {
"rotation": {
"radians": 2.0874652118434707
},
"translation": {
"x": 4.611430638644508,
"y": 2.7955217814128845
}
},
"time": 8.915595531760435,
"velocity": 0.7949237540138961
},
{
"acceleration": -0.25478005564837547,
"curvature": -1.0503472845473258,
"pose": {
"rotation": {
"radians": 2.0274777388019687
},
"translation": {
"x": 4.582958829064349,
"y": 2.8492472123932373
}
},
"time": 8.993149055162212,
"velocity": 0.7731159556444194
},
{
"acceleration": -0.1959947862362194,
"curvature": -1.1678727301920475,
"pose": {
"rotation": {
"radians": 1.9637961175830498
},
"translation": {
"x": 4.559285885190476,
"y": 2.9014972835992587
}
},
"time": 9.068275797085988,
"velocity": 0.7539751601563984
},
{
"acceleration": -0.09895306729872211,
"curvature": -1.2593623935679197,
"pose": {
"rotation": {
"radians": 1.8977137482625677
},
"translation": {
"x": 4.540129129517078,
"y": 2.9523337695233582
}
},
"time": 9.141016476450064,
"velocity": 0.7397183662537591
},
{
"acceleration": 0.04190697390670354,
"curvature": -1.3052661322523647,
"pose": {
"rotation": {
"radians": 1.831143613558132
},
"translation": {
"x": 4.525148501257181,
"y": 3.0018416009417734
}
},
"time": 9.211271463852414,
"velocity": 0.7327664197572634
},
{
"acceleration": 0.23451506957436608,
"curvature": -1.2864781295453454,
"pose": {
"rotation": {
"radians": 1.766589502319442
},
"translation": {
"x": 4.513944231319032,
"y": 3.0501299172283503
}
},
"time": 9.278790400362837,
"velocity": 0.7355959340678141
},
{
"acceleration": 0.4940081306754013,
"curvature": -1.1885924105221073,
"pose": {
"rotation": {
"radians": 1.7070076486928518
},
"translation": {
"x": 4.5060545172823385,
"y": 3.0973331186683177
}
},
"time": 9.343189507691099,
"velocity": 0.7506984952034284
},
{
"acceleration": 0.8503726805316123,
"curvature": -1.0051609508381132,
"pose": {
"rotation": {
"radians": 1.655582142011923
},
"translation": {
"x": 4.500953198374642,
"y": 3.143611918772076
}
},
"time": 9.403994063820997,
"velocity": 0.7807364403137068
},
{
"acceleration": 1.741999660589617,
"curvature": -0.7385148130962788,
"pose": {
"rotation": {
"radians": 1.6154739462384273
},
"translation": {
"x": 4.498047430447679,
"y": 3.1891543965889984
}
},
"time": 9.460694545416365,
"velocity": 0.8289529808353934
},
{
"acceleration": -1.7335721468325627,
"curvature": -1.0668969254514682e-14,
"pose": {
"rotation": {
"radians": 1.5805047596290003
},
"translation": {
"x": 4.496103803921567,
"y": 3.2789258431372623
}
},
"time": 9.558884587030212,
"velocity": 0.9999999999999971
},
{
"acceleration": -1.0922702025880802,
"curvature": -0.7266125859177464,
"pose": {
"rotation": {
"radians": 1.547463463053254
},
"translation": {
"x": 4.496231069391723,
"y": 3.3680575116008926
}
},
"time": 9.656230148413027,
"velocity": 0.8312444461689685
},
{
"acceleration": -0.8478135516718495,
"curvature": -1.062452243594564,
"pose": {
"rotation": {
"radians": 1.5079564033935433
},
"translation": {
"x": 4.49807684399759,
"y": 3.4121346035328486
}
},
"time": 9.711294126893836,
"velocity": 0.7710997032384286
},
{
"acceleration": -0.650625838371607,
"curvature": -1.3817812326718835,
"pose": {
"rotation": {
"radians": 1.4544931637291811
},
"translation": {
"x": 4.501934456964454,
"y": 3.45565506039567
}
},
"time": 9.76983913457513,
"velocity": 0.7214644523434941
},
{
"acceleration": -0.4727184127783368,
"curvature": -1.6741600029610337,
"pose": {
"rotation": {
"radians": 1.3882216004945143
},
"translation": {
"x": 4.508333972610845,
"y": 3.4984665123787213
}
},
"time": 9.831555555150505,
"velocity": 0.6813101544653462
},
{
"acceleration": -0.30256504296849757,
"curvature": -1.920550617632239,
"pose": {
"rotation": {
"radians": 1.3107013404329138
},
"translation": {
"x": 4.5177382180954435,
"y": 3.5404325335186027
}
},
"time": 9.896125669605713,
"velocity": 0.6507866724471644
},
{
"acceleration": -0.17839422742082534,
"curvature": -2.0974996174773337,
"pose": {
"rotation": {
"radians": 1.2240887763203747
},
"translation": {
"x": 4.530545248128428,
"y": 3.581432104677667
}
},
"time": 9.963172753982095,
"velocity": 0.6305005684819117
},
{
"acceleration": -0.09806354946179548,
"curvature": -2.1532292087967497,
"pose": {
"rotation": {
"radians": 1.1782212257008258
},
"translation": {
"x": 4.538332094781162,
"y": 3.601535733680162
}
},
"time": 9.997533261190554,
"velocity": 0.6243708523446709
},
{
"acceleration": -0.020357141466293034,
"curvature": -2.184737412828584,
"pose": {
"rotation": {
"radians": 1.131165432016977
},
"translation": {
"x": 4.547090809682807,
"y": 3.621359076522528
}
},
"time": 10.032338697709577,
"velocity": 0.6209577076990483
},
{
"acceleration": 0.05387852546778677,
"curvature": -2.191393722947178,
"pose": {
"rotation": {
"radians": 1.083336513466672
},
"translation": {
"x": 4.556854029987762,
"y": 3.6408910998399184
}
},
"time": 10.067524377628507,
"velocity": 0.620241427835351
},
{
"acceleration": 0.1236979550999441,
"curvature": -2.1736522343469034,
"pose": {
"rotation": {
"radians": 1.0351548311759844
},
"translation": {
"x": 4.56765080670577,
"y": 3.6601216325025705
}
},
"time": 10.103026932050263,
"velocity": 0.622154253117935
},
{
"acceleration": 0.18811400265906364,
"curvature": -2.133039331694825,
"pose": {
"rotation": {
"radians": 0.9870318238383895
},
"translation": {
"x": 4.57950668172415,
"y": 3.6790413488338762
}
},
"time": 10.138787214382218,
"velocity": 0.6265777269161946
},
{
"acceleration": 0.24616173747956888,
"curvature": -2.0720194983895173,
"pose": {
"rotation": {
"radians": 0.9393562258289175
},
"translation": {
"x": 4.5924437648300245,
"y": 3.697641751828465
}
},
"time": 10.174753078815318,
"velocity": 0.6333434096337984
},
{
"acceleration": 0.29696915588024236,
"curvature": -1.993764680469673,
"pose": {
"rotation": {
"radians": 0.892482010346846
},
"translation": {
"x": 4.606480810732547,
"y": 3.7159151563702864
}
},
"time": 10.210881704817481,
"velocity": 0.6422368949832405
},
{
"acceleration": 0.33983012946568986,
"curvature": -1.9018689581254395,
"pose": {
"rotation": {
"radians": 0.8467190926845468
},
"translation": {
"x": 4.621633296085137,
"y": 3.7338546724506774
}
},
"time": 10.247141221692095,
"velocity": 0.6530048531021202
},
{
"acceleration": 0.3742708973810967,
"curvature": -1.8000552921449677,
"pose": {
"rotation": {
"radians": 0.8023273787096197
},
"translation": {
"x": 4.637913496507704,
"y": 3.751454188386453
}
},
"time": 10.283511504418803,
"velocity": 0.6653645709898413
},
{
"acceleration": 0.40895521730940304,
"curvature": -1.6919149898251167,
"pose": {
"rotation": {
"radians": 0.7595142592739387
},
"translation": {
"x": 4.655330563608879,
"y": 3.768708354037976
}
},
"time": 10.319984136096064,
"velocity": 0.6790152155775404
},
{
"acceleration": 0.4276831905701601,
"curvature": -1.4692280544419412,
"pose": {
"rotation": {
"radians": 0.6791970569037226
},
"translation": {
"x": 4.693596746358564,
"y": 3.8021629409559505
}
},
"time": 10.393224600438069,
"velocity": 0.7089672855883664
},
{
"acceleration": 0.4187398507189204,
"curvature": -1.2540234914338582,
"pose": {
"rotation": {
"radians": 0.6064572227784502
},
"translation": {
"x": 4.736445503822393,
"y": 3.834190225245516
}
},
"time": 10.467036736145683,
"velocity": 0.7405354952905967
},
{
"acceleration": 0.3899856936755194,
"curvature": -1.0583977719263005,
"pose": {
"rotation": {
"radians": 0.5413826810456888
},
"translation": {
"x": 4.783845440730795,
"y": 3.8647731096014297
}
},
"time": 10.541637625559558,
"velocity": 0.7717738605872613
},
{
"acceleration": 0.34972687453228435,
"curvature": -0.8876579891931106,
"pose": {
"rotation": {
"radians": 0.48365544883879363
},
"translation": {
"x": 4.835722571767768,
"y": 3.8939050703507965
}
},
"time": 10.617283261660708,
"velocity": 0.8012745764556944
},
{
"acceleration": 0.30501986083615157,
"curvature": -0.7425319899453212,
"pose": {
"rotation": {
"radians": 0.4327253131961697
},
"translation": {
"x": 4.891962786282222,
"y": 3.921589620431585
}
},
"time": 10.694222873729576,
"velocity": 0.8281824265122661
},
{
"acceleration": 0.2608972544783022,
"curvature": -0.6211810124575081,
"pose": {
"rotation": {
"radians": 0.3879393832911626
},
"translation": {
"x": 4.95241431299932,
"y": 3.9478397723711387
}
},
"time": 10.77266746851017,
"velocity": 0.8521095858955909
},
{
"acceleration": 0.22037691871743734,
"curvature": -0.5206306007989165,
"pose": {
"rotation": {
"radians": 0.3486272202232684
},
"translation": {
"x": 5.016890184731818,
"y": 3.972677501264682
}
},
"time": 10.85277155650885,
"velocity": 0.8730085225269351
},
{
"acceleration": 0.18488779444218825,
"curvature": -0.4376346105961274,
"pose": {
"rotation": {
"radians": 0.3141506667197509
},
"translation": {
"x": 5.085170703091414,
"y": 3.996133207753836
}
},
"time": 10.934624925311025,
"velocity": 0.8910471157302005
},
{
"acceleration": 0.15479515458212814,
"curvature": -0.36912496460325583,
"pose": {
"rotation": {
"radians": 0.2839291717442353
},
"translation": {
"x": 5.15700590320008,
"y": 4.0182451810051285
}
},
"time": 11.01825114650478,
"velocity": 0.9065085833242482
},
{
"acceleration": 0.1298514051151495,
"curvature": -0.312402920856858,
"pose": {
"rotation": {
"radians": 0.2574496764746694
},
"translation": {
"x": 5.232118018401409,
"y": 4.039059061688506
}
},
"time": 11.103610139665294,
"velocity": 0.919721741865505
},
{
"acceleration": 0.10951757137326229,
"curvature": -0.26518694723951947,
"pose": {
"rotation": {
"radians": 0.23426758350603732
},
"translation": {
"x": 5.310203944971957,
"y": 4.058627304955842
}
},
"time": 11.190602911814956,
"velocity": 0.9310178755640006
},
{
"acceleration": 0.09316472728646515,
"curvature": -0.22558995093093095,
"pose": {
"rotation": {
"radians": 0.2140030823789223
},
"translation": {
"x": 5.390937706832585,
"y": 4.077008643419453
}
},
"time": 11.279077267270692,
"velocity": 0.9407073721023276
},
{
"acceleration": 0.08018669909892971,
"curvature": -0.19206729027275282,
"pose": {
"rotation": {
"radians": 0.1963354495789848
},
"translation": {
"x": 5.473972920259799,
"y": 4.094267550130603
}
},
"time": 11.368833772724892,
"velocity": 0.9490695124551543
},
{
"acceleration": 0.070055742952655,
"curvature": -0.16335708469869845,
"pose": {
"rotation": {
"radians": 0.18099683842035266
},
"translation": {
"x": 5.55894525859709,
"y": 4.110473701558021
}
},
"time": 11.459631584891312,
"velocity": 0.9563502892981841
},
{
"acceleration": 0.06234570063348171,
"curvature": -0.13842278667529184,
"pose": {
"rotation": {
"radians": 0.16776638705325975
},
"translation": {
"x": 5.645474916966283,
"y": 4.125701440566409
}
},
"time": 11.551193945937621,
"velocity": 0.9627647585277825
},
{
"acceleration": 0.056739360615496,
"curvature": -0.11640171126729153,
"pose": {
"rotation": {
"radians": 0.1564650682615845
},
"translation": {
"x": 5.73316907697887,
"y": 4.140029239394955
}
},
"time": 11.643213265689518,
"velocity": 0.9685017674895309
},
{
"acceleration": 0.05303088369726893,
"curvature": -0.09655999960485435,
"pose": {
"rotation": {
"radians": 0.14695148180692394
},
"translation": {
"x": 5.821624371447357,
"y": 4.15353916263584
}
},
"time": 11.735355769780815,
"velocity": 0.9737298742571818
},
{
"acceleration": 0.051130631806717265,
"curvature": -0.07825290020748314,
"pose": {
"rotation": {
"radians": 0.1391186806824072
},
"translation": {
"x": 5.910429349096608,
"y": 4.166316330212756
}
},
"time": 11.827265720153763,
"velocity": 0.9786039401460314
},
{
"acceleration": 0.05107838556269561,
"curvature": -0.06088843531724779,
"pose": {
"rotation": {
"radians": 0.13289208428537927
},
"translation": {
"x": 5.999166939275179,
"y": 4.178448380359409
}
},
"time": 11.918569221430344,
"velocity": 0.9832723458524684
},
{
"acceleration": 0.05307167137157327,
"curvature": -0.04389196959690777,
"pose": {
"rotation": {
"radians": 0.12822853999221337
},
"translation": {
"x": 6.087416916666665,
"y": 4.190024932598039
}
},
"time": 12.008877621006441,
"velocity": 0.9878851531055662
},
{
"acceleration": 0.057519181066260396,
"curvature": -0.02666858196003007,
"pose": {
"rotation": {
"radians": 0.125116638516252
},
"translation": {
"x": 6.174758366001044,
"y": 4.201137050717924
}
},
"time": 12.09779049574848,
"velocity": 0.9926039079745776
},
{
"acceleration": -0.00866752620724741,
"curvature": -0.008559176232368272,
"pose": {
"rotation": {
"radians": 0.123578465972397
},
"translation": {
"x": 6.260772146766015,
"y": 4.211876705753894
}
},
"time": 12.184898194522194,
"velocity": 0.9976142714726082
},
{
"acceleration": -0.0742710815186943,
"curvature": 0.01121538265041944,
"pose": {
"rotation": {
"radians": 0.12367309357439187
},
"translation": {
"x": 6.345043357918335,
"y": 4.222336238964841
}
},
"time": 12.27005060484215,
"velocity": 0.9968762107245497
},
{
"acceleration": -0.08823221312418515,
"curvature": 0.033630667561929097,
"pose": {
"rotation": {
"radians": 0.12550228091037335
},
"translation": {
"x": 6.427163802595175,
"y": 4.232607824812235
}
},
"time": 12.353328625455308,
"velocity": 0.9906910620668742
},
{
"acceleration": -0.10865602993740314,
"curvature": 0.05996911944663075,
"pose": {
"rotation": {
"radians": 0.1292191309119472
},
"translation": {
"x": 6.506734452825448,
"y": 4.242782933938627
}
},
"time": 12.4345950668574,
"velocity": 0.9835207440892408
},
{
"acceleration": -0.13826524964163828,
"curvature": 0.09198665290035322,
"pose": {
"rotation": {
"radians": 0.13504083550259638
},
"translation": {
"x": 6.5833679142411565,
"y": 4.252951796146167
}
},
"time": 12.513539799158597,
"velocity": 0.9749429228929216
},
{
"acceleration": -0.18119824940017515,
"curvature": 0.13217300045358574,
"pose": {
"rotation": {
"radians": 0.1432672780017869
},
"translation": {
"x": 6.6566908907887345,
"y": 4.263202863375113
}
},
"time": 12.589892078919041,
"velocity": 0.9643860558711356
},
{
"acceleration": -0.2436923846181463,
"curvature": 0.18417146616368527,
"pose": {
"rotation": {
"radians": 0.15430826153743912
},
"translation": {
"x": 6.726346649440391,
"y": 4.27362227268234
}
},
"time": 12.663431825595918,
"velocity": 0.9510607825119533
},
{
"acceleration": -0.33495927353941596,
"curvature": 0.25347627346782525,
"pose": {
"rotation": {
"radians": 0.16872377167281394
},
"translation": {
"x": 6.791997484905445,
"y": 4.284293309219854
}
},
"time": 12.734004908364653,
"velocity": 0.9338626596821863
},
{
"acceleration": -0.5595580752184177,
"curvature": 0.34862632787080966,
"pose": {
"rotation": {
"radians": 0.18728440994535173
},
"translation": {
"x": 6.853327184341673,
"y": 4.2952958692133025
}
},
"time": 12.801544594701358,
"velocity": 0.9112396154117635
},
{
"acceleration": -0.9234943125531881,
"curvature": 0.68020276760667,
"pose": {
"rotation": {
"radians": 0.24158214324134789
},
"translation": {
"x": 6.96188057426909,
"y": 4.318594977709864
}
},
"time": 12.928319347711144,
"velocity": 0.8403017786313176
},
{
"acceleration": -1.2604169896325543,
"curvature": 0.97809931148932,
"pose": {
"rotation": {
"radians": 0.2810347626095573
},
"translation": {
"x": 7.0086014837201915,
"y": 4.331029540839079
}
},
"time": 12.987799035938666,
"velocity": 0.7853726248407644
},
{
"acceleration": -1.6215178911353865,
"curvature": 1.4454933907857836,
"pose": {
"rotation": {
"radians": 0.3326567153752456
},
"translation": {
"x": 7.050000624484973,
"y": 4.344070582633453
}
},
"time": 13.045761115906888,
"velocity": 0.7123162344943762
},
{
"acceleration": -1.8419161162160627,
"curvature": 2.2059930657628146,
"pose": {
"rotation": {
"radians": 0.4013029259831303
},
"translation": {
"x": 7.085906216633619,
"y": 4.3577729993645065
}
},
"time": 13.103509511868378,
"velocity": 0.6186761772584504
},
{
"acceleration": -1.9115563753713527,
"curvature": 2.760180183338159,
"pose": {
"rotation": {
"radians": 0.4441777905716846
},
"translation": {
"x": 7.101755103862789,
"y": 4.364887585389889
}
},
"time": 13.132873169852395,
"velocity": 0.5645907823866321
},
{
"acceleration": -1.8948165375412063,
"curvature": 3.481628100342874,
"pose": {
"rotation": {
"radians": 0.49431358602659
},
"translation": {
"x": 7.11618276095282,
"y": 4.372185076248469
}
},
"time": 13.163051992151319,
"velocity": 0.5069022622199274
},
{
"acceleration": -1.7796297282102493,
"curvature": 4.421684498167062,
"pose": {
"rotation": {
"radians": 0.553186629706669
},
"translation": {
"x": 7.129178323730697,
"y": 4.379670386509799
}
},
"time": 13.194484461773092,
"velocity": 0.4473434989648294
},
{
"acceleration": -1.572260944631495,
"curvature": 5.639452904096788,
"pose": {
"rotation": {
"radians": 0.622523942032518
},
"translation": {
"x": 7.140733503657119,
"y": 4.38734795042479
}
},
"time": 13.227690229026534,
"velocity": 0.3882495284125735
},
{
"acceleration": -1.3705980807793798,
"curvature": 7.190540945188707,
"pose": {
"rotation": {
"radians": 0.7042357967653796
},
"translation": {
"x": 7.150842664848705,
"y": 4.3952217051437845
}
},
"time": 13.26325513078138,
"velocity": 0.3323322223837726
},
{
"acceleration": -1.2227183585452883,
"curvature": 8.101074705890193,
"pose": {
"rotation": {
"radians": 0.75033363020791
},
"translation": {
"x": 7.155353971495677,
"y": 4.399233244358406
}
},
"time": 13.282157189967965,
"velocity": 0.30642509633986
},
{
"acceleration": -1.070291957610901,
"curvature": 9.098907017435547,
"pose": {
"rotation": {
"radians": 0.8002131465746405
},
"translation": {
"x": 7.159502901100244,
"y": 4.403295073934647
}
},
"time": 13.301881623510793,
"velocity": 0.2823076693351365
},
{
"acceleration": -0.9180296224419235,
"curvature": 10.173323043906425,
"pose": {
"rotation": {
"radians": 0.8540375135607535
},
"translation": {
"x": 7.163289529535419,
"y": 4.407407538733565
}
},
"time": 13.32248857411253,
"velocity": 0.26025221583521163
},
{
"acceleration": -0.7698556690024645,
"curvature": 11.303712151395457,
"pose": {
"rotation": {
"radians": 0.9118990063408974
},
"translation": {
"x": 7.166714112906899,
"y": 4.411570949400828
}
},
"time": 13.344020395127451,
"velocity": 0.24048536631839706
},
{
"acceleration": -0.6286030986707432,
"curvature": 12.457422439873326,
"pose": {
"rotation": {
"radians": 0.9737899403528284
},
"translation": {
"x": 7.169777089959964,
"y": 4.415785581842272
}
},
"time": 13.366493649310035,
"velocity": 0.22318420418500146
},
{
"acceleration": -0.49585858357465307,
"curvature": 13.588752071383817,
"pose": {
"rotation": {
"radians": 1.0395722466192712
},
"translation": {
"x": 7.172479084486456,
"y": 4.420051676699462
}
},
"time": 13.389890649863732,
"velocity": 0.20847677713734625
},
{
"acceleration": -0.3719579410583159,
"curvature": 14.640083294154435,
"pose": {
"rotation": {
"radians": 1.1089501358035316
},
"translation": {
"x": 7.174820907731727,
"y": 4.4243694388252655
}
},
"time": 13.414151753472789,
"velocity": 0.19644670066580144
},
{
"acceleration": -0.25610787090057235,
"curvature": 15.54605061162745,
"pose": {
"rotation": {
"radians": 1.1814519927661358
},
"translation": {
"x": 7.176803560801556,
"y": 4.428739036759417
}
},
"time": 13.439170100657545,
"velocity": 0.18714092775827695
},
{
"acceleration": -0.1465962364271665,
"curvature": 16.240993510877143,
"pose": {
"rotation": {
"radians": 1.2564282884924278
},
"translation": {
"x": 7.178428237069106,
"y": 4.433160602204079
}
},
"time": 13.464790701913456,
"velocity": 0.18057929011943313
},
{
"acceleration": -0.04105232523349839,
"curvature": 16.6687732294653,
"pose": {
"rotation": {
"radians": 1.3330709370091096
},
"translation": {
"x": 7.179696324581897,
"y": 4.437634229499407
}
},
"time": 13.490815414352912,
"velocity": 0.17676416522170962
},
{
"acceleration": 0.06327281609190953,
"curvature": 16.792726018619963,
"pose": {
"rotation": {
"radians": 1.4104557048302016
},
"translation": {
"x": 7.180609408468694,
"y": 4.4421599750991145
}
},
"time": 13.51701430197321,
"velocity": 0.17568863996636525
},
{
"acceleration": 0.1692235222534178,
"curvature": 16.602818547620007,
"pose": {
"rotation": {
"radians": 1.487603671264862
},
"translation": {
"x": 7.1811692733465,
"y": 4.446737857046042
}
},
"time": 13.543142301507071,
"velocity": 0.17734183207572074
},
{
"acceleration": 0.27946166859313204,
"curvature": 16.11760112080543,
"pose": {
"rotation": {
"radians": 1.563552256598661
},
"translation": {
"x": 7.181377905727481,
"y": 4.451367854447716
}
},
"time": 13.568958565799301,
"velocity": 0.18171055125067692
},
{
"acceleration": 0.39619787690186764,
"curvature": 15.380284571633975,
"pose": {
"rotation": {
"radians": 1.6374233438204828
},
"translation": {
"x": 7.181237496425915,
"y": 4.456049906951922
}
},
"time": 13.594245005662364,
"velocity": 0.18877714192758815
},
{
"acceleration": 0.5209397158217841,
"curvature": 14.450348882683842,
"pose": {
"rotation": {
"radians": 1.7084769437521372
},
"translation": {
"x": 7.180750442965131,
"y": 4.460783914222259
}
},
"time": 13.618820811825914,
"velocity": 0.19851402415273883
},
{
"acceleration": 0.6542738303701161,
"curvature": 13.393425415693265,
"pose": {
"rotation": {
"radians": 1.7761432439399527
},
"translation": {
"x": 7.179919351984455,
"y": 4.4655697354137125
}
},
"time": 13.642550981684815,
"velocity": 0.21087601209543694
},
{
"acceleration": 0.7957082521674834,
"curvature": 12.272218813035787,
"pose": {
"rotation": {
"radians": 1.8400317167168956
},
"translation": {
"x": 7.178747041646167,
"y": 4.470407188648217
}
},
"time": 13.665348518667507,
"velocity": 0.22579184394010748
},
{
"acceleration": 0.9436054317835337,
"curvature": 11.14022357279192,
"pose": {
"rotation": {
"radians": 1.8999209268754076
},
"translation": {
"x": 7.177236544042424,
"y": 4.47529605049022
}
},
"time": 13.68717135489906,
"velocity": 0.24315645481525355
},
{
"acceleration": 1.0952318335422382,
"curvature": 10.038681911071386,
"pose": {
"rotation": {
"radians": 1.955735383007479
},
"translation": {
"x": 7.175391107602231,
"y": 4.48023605542225
}
},
"time": 13.708015783041619,
"velocity": 0.26282537043299253
},
{
"acceleration": 1.2469353274065103,
"curvature": 8.996250337211443,
"pose": {
"rotation": {
"radians": 2.0075161204685052
},
"translation": {
"x": 7.173214199498357,
"y": 4.485226895320475
}
},
"time": 13.727908255149512,
"velocity": 0.284612239133408
},
{
"acceleration": 1.3944398964120417,
"curvature": 8.030418142490332,
"pose": {
"rotation": {
"radians": 2.0553904571501738
},
"translation": {
"x": 7.170709508054301,
"y": 4.490268218930274
}
},
"time": 13.74689704107683,
"velocity": 0.30829002713074094
},
{
"acceleration": 1.5974647252818324,
"curvature": 7.149746222115225,
"pose": {
"rotation": {
"radians": 2.0995444958862435
},
"translation": {
"x": 7.16788094515123,
"y": 4.495359631341801
}
},
"time": 13.765044711484137,
"velocity": 0.33359586277362635
},
{
"acceleration": 1.813259368148226,
"curvature": 5.647494621387648,
"pose": {
"rotation": {
"radians": 2.177597396817018
},
"translation": {
"x": 7.161268984722719,
"y": 4.5056909215079095
}
},
"time": 13.79904563438553,
"velocity": 0.3879111377356299
},
{
"acceleration": 1.947015868399816,
"curvature": 4.462212231731481,
"pose": {
"rotation": {
"radians": 2.2435906292929326
},
"translation": {
"x": 7.153414175879387,
"y": 4.516216713506962
}
},
"time": 13.830578782463672,
"velocity": 0.44508891389552363
},
{
"acceleration": 1.9925409254929198,
"curvature": 3.5401688659241817,
"pose": {
"rotation": {
"radians": 2.2993951406744095
},
"translation": {
"x": 7.144356107254966,
"y": 4.5269322229796565
}
},
"time": 13.860185711080742,
"velocity": 0.5027340737275392
},
{
"acceleration": 1.9112912441724668,
"curvature": 2.825647674256728,
"pose": {
"rotation": {
"radians": 2.346672511098543
},
"translation": {
"x": 7.13413817547253,
"y": 4.537831916737307
}
},
"time": 13.88833350037081,
"velocity": 0.5588196958501516
},
{
"acceleration": 1.6573029806517934,
"curvature": 1.8362982488162582,
"pose": {
"rotation": {
"radians": 2.4210164334031954
},
"translation": {
"x": 7.110415811006208,
"y": 4.560157879514267
}
},
"time": 13.94174863102982,
"velocity": 0.6609115673850472
},
{
"acceleration": 1.3593660792774072,
"curvature": 1.219971899215152,
"pose": {
"rotation": {
"radians": 2.475068262668178
},
"translation": {
"x": 7.082673342097259,
"y": 4.583134722027594
}
},
"time": 13.99296338554048,
"velocity": 0.7457899326889104
},
{
"acceleration": -1.721325427717348,
"curvature": 0.8176851574260584,
"pose": {
"rotation": {
"radians": 2.5143378869519037
},
"translation": {
"x": 7.051402885615111,
"y": 4.606689509153892
}
},
"time": 14.04316073126161,
"velocity": 0.8140265017319761
},
{
"acceleration": -1.9999999999999998,
"curvature": 0.3313689509700541,
"pose": {
"rotation": {
"radians": 2.561271283726623
},
"translation": {
"x": 6.980590551940038,
"y": 4.655172678057069
}
},
"time": 14.164034230914881,
"velocity": 0.6059638732416158
},
{
"acceleration": -1.9999999999999998,
"curvature": -1.4057186713972045e-14,
"pose": {
"rotation": {
"radians": 2.5760581786280423
},
"translation": {
"x": 6.9033265490196145,
"y": 4.704742392156865
}
},
"time": 14.46701616753569,
"velocity": 0.0
}
]