[
{
"acceleration": 1.9999999999999991,
"curvature": 0.0,
"pose": {
"rotation": {
"radians": -2.387820805331373
},
"translation": {
"x": 5.079,
"y": 1.8440000000000003
}
},
"time": 0.0,
"velocity": 0.0
},
{
"acceleration": 1.9999999999999991,
"curvature": -3.2228597595568864,
"pose": {
"rotation": {
"radians": -2.4473676118264116
},
"translation": {
"x": 5.05468020927906,
"y": 1.8221089203357703
}
},
"time": 0.18088979629459892,
"velocity": 0.3617795925891977
},
{
"acceleration": 1.0002170907381664,
"curvature": -3.805442336006368,
"pose": {
"rotation": {
"radians": -2.509807209257323
},
"translation": {
"x": 5.04093570310995,
"y": 1.8113567691370847
}
},
"time": 0.22399023574559707,
"velocity": 0.4479804714911939
},
{
"acceleration": 0.7719622672790363,
"curvature": -3.753543970466308,
"pose": {
"rotation": {
"radians": -2.5816004866557245
},
"translation": {
"x": 5.025394916534424,
"y": 1.8008203506469727
}
},
"time": 0.26410589533516604,
"velocity": 0.4881048398189152
},
{
"acceleration": 1.1733312890164465,
"curvature": -3.3089129897535865,
"pose": {
"rotation": {
"radians": -2.654608772576709
},
"translation": {
"x": 5.007575914818793,
"y": 1.7905534954145557
}
},
"time": 0.3049211889696756,
"velocity": 0.5196127064326709
},
{
"acceleration": 1.3688327737126544,
"curvature": -2.71337935748302,
"pose": {
"rotation": {
"radians": -2.723280531770646
},
"translation": {
"x": 4.987052762389183,
"y": 1.7806014230251312
}
},
"time": 0.3468337054639885,
"velocity": 0.5687899734368661
},
{
"acceleration": 1.3872926384947493,
"curvature": -2.1281675021614412,
"pose": {
"rotation": {
"radians": -2.784694463820315
},
"translation": {
"x": 4.963453542020171,
"y": 1.7710010827407245
}
},
"time": 0.38944125633856486,
"velocity": 0.6271125854816155
},
{
"acceleration": 1.1715313984672064,
"curvature": -1.6281733098334272,
"pose": {
"rotation": {
"radians": -2.837902002216552
},
"translation": {
"x": 4.936458374023437,
"y": 1.7617814941406253
}
},
"time": 0.43284549903911984,
"velocity": 0.687326971859535
},
{
"acceleration": 0.7666764532069288,
"curvature": -0.9285509800303451,
"pose": {
"rotation": {
"radians": -2.9211868141056403
},
"translation": {
"x": 4.871248979210853,
"y": 1.7445630457401275
}
},
"time": 0.5239045292250123,
"velocity": 0.7940054848362811
},
{
"acceleration": 0.4418344518013829,
"curvature": -0.5330747276491388,
"pose": {
"rotation": {
"radians": -2.979634156348416
},
"translation": {
"x": 4.789831020355225,
"y": 1.7290325851440436
}
},
"time": 0.6235047799921154,
"velocity": 0.8703666518329244
},
{
"acceleration": 0.2451213807122357,
"curvature": -0.3134120257776145,
"pose": {
"rotation": {
"radians": -3.0203867861772733
},
"translation": {
"x": 4.691316768527031,
"y": 1.7151715457439423
}
},
"time": 0.7346700788102635,
"velocity": 0.9194833106955778
},
{
"acceleration": 0.15761447938143974,
"curvature": -0.18823487014763216,
"pose": {
"rotation": {
"radians": -3.048778623989589
},
"translation": {
"x": 4.5754609375,
"y": 1.7028671875000008
}
},
"time": 0.8593090148320482,
"velocity": 0.9500349787837417
},
{
"acceleration": 0.11921582583260627,
"curvature": -0.1464456761944399,
"pose": {
"rotation": {
"radians": -3.0595162711076584
},
"translation": {
"x": 4.511113346878439,
"y": 1.6972404645457866
}
},
"time": 0.9269200851605741,
"velocity": 0.9606914624339942
},
{
"acceleration": 0.09125669969160975,
"curvature": -0.1138082793513161,
"pose": {
"rotation": {
"radians": -3.068402873648799
},
"translation": {
"x": 4.442597297787666,
"y": 1.691923497438431
}
},
"time": 0.9981393092457643,
"velocity": 0.9691819210484676
},
{
"acceleration": 0.07083946191319777,
"curvature": -0.0879851871975912,
"pose": {
"rotation": {
"radians": -3.075697851400322
},
"translation": {
"x": 4.370034589897841,
"y": 1.6868805615231395
}
},
"time": 1.0729266379320412,
"velocity": 0.9760067658431288
},
{
"acceleration": 0.05586689729854494,
"curvature": -0.06727015063513433,
"pose": {
"rotation": {
"radians": -3.081610243256787
},
"translation": {
"x": 4.293575290679931,
"y": 1.6820720901489263
}
},
"time": 1.1511979756405828,
"velocity": 0.9815514652896281
},
{
"acceleration": 0.04483989842687914,
"curvature": -0.05040654653977681,
"pose": {
"rotation": {
"radians": -3.0863083109216203
},
"translation": {
"x": 4.213395754594355,
"y": 1.677455015309155
}
},
"time": 1.232830188285666,
"velocity": 0.986112003729724
},
{
"acceleration": 0.03669287098352017,
"curvature": -0.03645923962044072,
"pose": {
"rotation": {
"radians": -3.0899271805941115
},
"translation": {
"x": 4.129696642279625,
"y": 1.6729831082820894
}
},
"time": 1.3176655144039855,
"velocity": 0.9899160111358806
},
{
"acceleration": 0.03066964048840905,
"curvature": -0.024724098676057526,
"pose": {
"rotation": {
"radians": -3.0925748701265756
},
"translation": {
"x": 4.042700939740985,
"y": 1.668607320271433
}
},
"time": 1.405515483429669,
"velocity": 0.9931394787152462
},
{
"acceleration": 0.026233576923880966,
"curvature": -0.014663808033989695,
"pose": {
"rotation": {
"radians": -3.094337014698514
},
"translation": {
"x": 3.9526519775390625,
"y": 1.664276123046875
}
},
"time": 1.496164436239887,
"velocity": 0.9959196495085864
},
{
"acceleration": 0.011238114102947038,
"curvature": -0.005861996156726557,
"pose": {
"rotation": {
"radians": -3.0952805531620906
},
"translation": {
"x": 3.8598114499785003,
"y": 1.65993584958464
}
},
"time": 1.589372728478161,
"velocity": 0.9983648364129627
},
{
"acceleration": -0.020517411456660094,
"curvature": 0.0020098687274419545,
"pose": {
"rotation": {
"radians": -3.095456586122022
},
"translation": {
"x": 3.7644574342966077,
"y": 1.6555310347080239
}
},
"time": 1.6849333736534002,
"velocity": 0.9994387578471933
},
{
"acceleration": -0.0187666287091448,
"curvature": 0.009216669050768539,
"pose": {
"rotation": {
"radians": -3.0949025716889738
},
"translation": {
"x": 3.666882409851998,
"y": 1.6510047557279472
}
},
"time": 1.7827664207054168,
"velocity": 0.9974314769667683
},
{
"acceleration": -0.017663198429059047,
"curvature": 0.01597759752920374,
"pose": {
"rotation": {
"radians": -3.093643987265946
},
"translation": {
"x": 3.5673912773132326,
"y": 1.6462989730834963
}
},
"time": 1.8827192551408636,
"velocity": 0.9955556992344916
},
{
"acceleration": -0.01709888153778248,
"curvature": 0.02247976819763537,
"pose": {
"rotation": {
"radians": -3.091695555339311
},
"translation": {
"x": 3.466299377847463,
"y": 1.6413548709824681
}
},
"time": 1.9844756647198114,
"velocity": 0.99375835558067
},
{
"acceleration": -0.017005732019323507,
"curvature": 0.028888814890670467,
"pose": {
"rotation": {
"radians": -3.0890621070162303
},
"translation": {
"x": 3.363930512309074,
"y": 1.6361131980419161
}
},
"time": 2.087714138492395,
"velocity": 0.9919930931474912
},
{
"acceleration": -0.017347011827677505,
"curvature": 0.03535744209246511,
"pose": {
"rotation": {
"radians": -3.085739137822182
},
"translation": {
"x": 3.2606149604283274,
"y": 1.6305146079286938
}
},
"time": 2.1921098255001987,
"velocity": 0.9902177680702633
},
{
"acceleration": -0.018111656054409883,
"curvature": 0.04203264254225798,
"pose": {
"rotation": {
"radians": -3.0817130950006986
},
"translation": {
"x": 3.1566875000000003,
"y": 1.6245000000000003
}
},
"time": 2.2973365738640776,
"velocity": 0.988392398421807
},
{
"acceleration": -0.019311285652308247,
"curvature": 0.049062129078054496,
"pose": {
"rotation": {
"radians": -3.076961423390174
},
"translation": {
"x": 3.0524854260720318,
"y": 1.6180108599439267
}
},
"time": 2.4030690452208576,
"velocity": 0.9864774082668103
},
{
"acceleration": -0.02097915452559097,
"curvature": 0.056600419907782244,
"pose": {
"rotation": {
"radians": -3.0714523872545936
},
"translation": {
"x": 2.9483465701341633,
"y": 1.6109896004199982
}
},
"time": 2.5089849023082254,
"velocity": 0.9844320368954871
},
{
"acceleration": -0.023170663095446044,
"curvature": 0.0648149496465795,
"pose": {
"rotation": {
"radians": -3.0651446778045632
},
"translation": {
"x": 2.844607319306582,
"y": 1.6033799016997223
}
},
"time": 2.614767069825277,
"velocity": 0.9822128164570949
},
{
"acceleration": -0.0259652186053343,
"curvature": 0.07389254073857679,
"pose": {
"rotation": {
"radians": -3.05798681038787
},
"translation": {
"x": 2.741600635528565,
"y": 1.595127052307129
}
},
"time": 2.7201060705584528,
"velocity": 0.9797720419602955
},
{
"acceleration": -0.029469293430324124,
"curvature": 0.08404655142841987,
"pose": {
"rotation": {
"radians": -3.049916311555156
},
"translation": {
"x": 2.639654074747116,
"y": 1.5861782896593217
}
},
"time": 2.824702440119626,
"velocity": 0.9770561743593154
},
{
"acceleration": -0.033820524842954905,
"curvature": 0.09552500756555819,
"pose": {
"rotation": {
"radians": -3.0408586948641303
},
"translation": {
"x": 2.5390878061056146,
"y": 1.5764831407070163
}
},
"time": 2.9282692243511264,
"velocity": 0.9740041344051622
},
{
"acceleration": -0.03919258955724315,
"curvature": 0.10862001402630332,
"pose": {
"rotation": {
"radians": -3.0307262262975843
},
"translation": {
"x": 2.4402126311324537,
"y": 1.56599376257509
}
},
"time": 3.030534563219991,
"velocity": 0.9705454669713746
},
{
"acceleration": -0.04580032416967412,
"curvature": 0.12367870909514214,
"pose": {
"rotation": {
"radians": -3.0194164871349702
},
"translation": {
"x": 2.3433280029296872,
"y": 1.554665283203125
}
},
"time": 3.131244363347929,
"velocity": 0.9665983891105683
},
{
"acceleration": -0.05390406531840046,
"curvature": 0.14111594180446813,
"pose": {
"rotation": {
"radians": -3.0068107566135245
},
"translation": {
"x": 2.2487200453616696,
"y": 1.5424561419859533
}
},
"time": 3.230165057390812,
"velocity": 0.9620677892563151
},
{
"acceleration": -0.06381132864746343,
"curvature": 0.16142866798265015,
"pose": {
"rotation": {
"radians": -2.9927722627423234
},
"translation": {
"x": 2.156659572243692,
"y": 1.5293284304141999
}
},
"time": 3.3270864410263616,
"velocity": 0.9568433326620747
},
{
"acceleration": -0.07587257581511304,
"curvature": 0.18521169276892913,
"pose": {
"rotation": {
"radians": -2.977144393214342
},
"translation": {
"x": 2.0674001065306378,
"y": 1.5152482327148311
}
},
"time": 3.4218245654179302,
"velocity": 0.95079796707108
},
{
"acceleration": -0.09046577504428101,
"curvature": 0.21317370152864498,
"pose": {
"rotation": {
"radians": -2.959749028310617
},
"translation": {
"x": 1.981175899505617,
"y": 1.5001859664916992
}
},
"time": 3.514224641886561,
"velocity": 0.9437873352638916
},
{
"acceleration": -0.10796168650490712,
"curvature": 0.24615130795890125,
"pose": {
"rotation": {
"radians": -2.9403852664513868
},
"translation": {
"x": 1.898199949968606,
"y": 1.484116723366081
}
},
"time": 3.6041638821584243,
"velocity": 0.9356509121858037
},
{
"acceleration": -0.12865857837210923,
"curvature": 0.28511679734150674,
"pose": {
"rotation": {
"radians": -2.918828977317236
},
"translation": {
"x": 1.8186620234251043,
"y": 1.467020609617233
}
},
"time": 3.6915541465812107,
"velocity": 0.9262161118546098
},
{
"acceleration": -0.1526724461995297,
"curvature": 0.33117193220351787,
"pose": {
"rotation": {
"radians": -2.89483385784114
},
"translation": {
"x": 1.7427266712747533,
"y": 1.448883086822926
}
},
"time": 3.776344197398557,
"velocity": 0.9153071444563512
},
{
"acceleration": -0.17976918059028676,
"curvature": 0.3855151286802698,
"pose": {
"rotation": {
"radians": -2.86813500446152
},
"translation": {
"x": 1.6705312500000025,
"y": 1.429695312499999
}
},
"time": 3.8585212472517307,
"velocity": 0.9027609732338064
},
{
"acceleration": -0.20913275530780026,
"curvature": 0.4493621442408437,
"pose": {
"rotation": {
"radians": -2.838456464904109
},
"translation": {
"x": 1.6021839403547355,
"y": 1.4094544807448965
}
},
"time": 3.9381113490624395,
"velocity": 0.8884531258481978
},
{
"acceleration": -0.2526199361402606,
"curvature": 0.5237914232097011,
"pose": {
"rotation": {
"radians": -2.805524781743409
},
"translation": {
"x": 1.5377617665529248,
"y": 1.3881641628742205
}
},
"time": 4.0151779940025,
"velocity": 0.8723359660495549
},
{
"acceleration": -0.28812852178775433,
"curvature": 0.7062642891116463,
"pose": {
"rotation": {
"radians": -2.7289649013844612
},
"translation": {
"x": 1.4208332557678238,
"y": 1.3424832839965797
}
},
"time": 4.162215084447116,
"velocity": 0.8351914656511865
},
{
"acceleration": -0.29762704373758103,
"curvature": 0.8125739756613168,
"pose": {
"rotation": {
"radians": -2.6850619189287355
},
"translation": {
"x": 1.368307357210667,
"y": 1.318134817488489
}
},
"time": 4.232383671838387,
"velocity": 0.8149738942902045
},
{
"acceleration": -0.2888926146799048,
"curvature": 0.9246363239698084,
"pose": {
"rotation": {
"radians": -2.637468063217746
},
"translation": {
"x": 1.319663509726527,
"y": 1.2928217351436588
}
},
"time": 4.300516788528158,
"velocity": 0.7946956361892001
},
{
"acceleration": -0.25514006220599583,
"curvature": 1.0356984073201847,
"pose": {
"rotation": {
"radians": -2.5865169913099955
},
"translation": {
"x": 1.2747932426594195,
"y": 1.2665846039876314
}
},
"time": 4.3667197858385975,
"velocity": 0.7755700791965405
},
{
"acceleration": -0.18972739936837932,
"curvature": 1.135463658922873,
"pose": {
"rotation": {
"radians": -2.532873776970202
},
"translation": {
"x": 1.2335450439453188,
"y": 1.2394724121093725
}
},
"time": 4.431044870270812,
"velocity": 0.7591581731530995
},
{
"acceleration": -0.08614465525850327,
"curvature": 1.2101759628441577,
"pose": {
"rotation": {
"radians": -2.477609194451703
},
"translation": {
"x": 1.1957223793007463,
"y": 1.211542909301813
}
},
"time": 4.493464999048862,
"velocity": 0.7473153644518008
},
{
"acceleration": 0.06306721542200687,
"curvature": 1.2437485014087943,
"pose": {
"rotation": {
"radians": -2.422242673196155
},
"translation": {
"x": 1.1610817114114829,
"y": 1.1828629477024037
}
},
"time": 4.553853786506194,
"velocity": 0.74211319317481
},
{
"acceleration": 0.2689058158564292,
"curvature": 1.2200427642595753,
"pose": {
"rotation": {
"radians": -2.3687314126968717
},
"translation": {
"x": 1.1293305191211465,
"y": 1.153508822433646
}
},
"time": 4.611977916622962,
"velocity": 0.745778920210101
},
{
"acceleration": -1.6420464325170216,
"curvature": 1.125840296366705,
"pose": {
"rotation": {
"radians": -2.319392960039445
},
"translation": {
"x": 1.1001253166198728,
"y": 1.1235666122436472
}
},
"time": 4.667506711799588,
"velocity": 0.7607109361805959
},
{
"acceleration": -1.9999999999999996,
"curvature": 0.7027337847847153,
"pose": {
"rotation": {
"radians": -2.2434467336294732
},
"translation": {
"x": 1.0477122296094974,
"y": 1.0623132140636375
}
},
"time": 4.789561029238575,
"velocity": 0.5602920796566069
},
{
"acceleration": -1.9999999999999996,
"curvature": 3.0922819860278944e-14,
"pose": {
"rotation": {
"radians": -2.2142974355881617
},
"translation": {
"x": 1.0000000000000062,
"y": 0.9999999999999929
}
},
"time": 5.069707069066879,
"velocity": 0.0
}
]