[
{
"acceleration": -2.0,
"curvature": -0.0,
"pose": {
"rotation": {
"radians": -2.2142974355881813
},
"translation": {
"x": 1.0,
"y": 1.0
}
},
"time": 0.0,
"velocity": -0.0
},
{
"acceleration": -2.0000000000000004,
"curvature": -0.013736169100232948,
"pose": {
"rotation": {
"radians": -2.21363091087847
},
"translation": {
"x": 1.047744224080988,
"y": 1.0636910325874496
}
},
"time": 0.2821335904210571,
"velocity": -0.5642671808421142
},
{
"acceleration": -1.5918953126425273,
"curvature": -0.012019397297833067,
"pose": {
"rotation": {
"radians": -2.2124198164851143
},
"translation": {
"x": 1.1003741293976728,
"y": 1.1340526765904517
}
},
"time": 0.40922694678741023,
"velocity": -0.8184538935748206
},
{
"acceleration": -0.007375338593965566,
"curvature": -0.0047221870529967035,
"pose": {
"rotation": {
"radians": -2.2115622108671977
},
"translation": {
"x": 1.1618977532983248,
"y": 1.2164904771086924
}
},
"time": 0.5224432270281054,
"velocity": -0.998682359404806
},
{
"acceleration": 0.008760568293101274,
"curvature": 0.0014664703556575493,
"pose": {
"rotation": {
"radians": -2.2113972512260642
},
"translation": {
"x": 1.2354241479827281,
"y": 1.3151163513099817
}
},
"time": 0.6455666033529208,
"velocity": -0.9995904359940337
},
{
"acceleration": 0.006156640899697278,
"curvature": 0.003674665784191881,
"pose": {
"rotation": {
"radians": -2.211582327203975
},
"translation": {
"x": 1.2774299680512122,
"y": 1.3714544645417472
}
},
"time": 0.7158913309802575,
"velocity": -0.9989743514149607
},
{
"acceleration": 0.004297765815746891,
"curvature": 0.0053687530728753815,
"pose": {
"rotation": {
"radians": -2.2119325064903803
},
"translation": {
"x": 1.3232276695037588,
"y": 1.4328436772842323
}
},
"time": 0.7925783284082332,
"velocity": -0.9985022171101207
},
{
"acceleration": 0.0030213337672975495,
"curvature": 0.0066543690668565076,
"pose": {
"rotation": {
"radians": -2.212435599188513
},
"translation": {
"x": 1.3729816729883444,
"y": 1.499476490582861
}
},
"time": 0.8758768418304478,
"velocity": -0.9981442196066321
},
{
"acceleration": 0.0021672237997810793,
"curvature": 0.007632383151908165,
"pose": {
"rotation": {
"radians": -2.213080326766408
},
"translation": {
"x": 1.4268122667689602,
"y": 1.5714823828974334
}
},
"time": 0.9659594519153624,
"velocity": -0.9978720499749363
},
{
"acceleration": 0.0016075843365446173,
"curvature": 0.00838789415059132,
"pose": {
"rotation": {
"radians": -2.213857236078611
},
"translation": {
"x": 1.4847976157569125,
"y": 1.648930781628816
}
},
"time": 1.0629259425069575,
"velocity": -0.9976619018887449
},
{
"acceleration": 0.0012493099249797825,
"curvature": 0.008988500107198082,
"pose": {
"rotation": {
"radians": -2.2147590237258505
},
"translation": {
"x": 1.5469757705421212,
"y": 1.731834034645626
}
},
"time": 1.1668069958285758,
"velocity": -0.9974949043345613
},
{
"acceleration": 0.0010278045046627695,
"curvature": 0.009486316004739257,
"pose": {
"rotation": {
"radians": -2.2157805600000158
},
"translation": {
"x": 1.6133466764244195,
"y": 1.8201503818109224
}
},
"time": 1.2775677984719278,
"velocity": -0.9973565297645203
},
{
"acceleration": 0.0008994975004733023,
"curvature": 0.00992106202478445,
"pose": {
"rotation": {
"radians": -2.216918780029117
},
"translation": {
"x": 1.6838741824448529,
"y": 1.9137869265088847
}
},
"time": 1.3951116075972856,
"velocity": -0.997235717708006
},
{
"acceleration": 0.0008452947780549802,
"curvature": 0.010323083423048655,
"pose": {
"rotation": {
"radians": -2.2181725335772726
},
"translation": {
"x": 1.7584880504169784,
"y": 2.012602607171509
}
},
"time": 1.5192833045855019,
"velocity": -0.9971240255769356
},
{
"acceleration": 0.0008260313204717452,
"curvature": 0.010519382939800254,
"pose": {
"rotation": {
"radians": -2.2188428634050563
},
"translation": {
"x": 1.7972965943854426,
"y": 2.063896102919599
}
},
"time": 1.5837910788134772,
"velocity": -0.9970694974922367
},
{
"acceleration": 0.0008171538591703311,
"curvature": 0.010715911505048038,
"pose": {
"rotation": {
"radians": -2.2195424404678312
},
"translation": {
"x": 1.837085963958165,
"y": 2.1164111688052873
}
},
"time": 1.6498729991378962,
"velocity": -0.9970149117563318
},
{
"acceleration": 0.0008171972105567773,
"curvature": 0.010914880407844278,
"pose": {
"rotation": {
"radians": -2.220271599668373
},
"translation": {
"x": 1.8778386869758594,
"y": 2.1701179489977482
}
},
"time": 1.7174948428909087,
"velocity": -0.9969596543057448
},
{
"acceleration": 0.0008250076586399905,
"curvature": 0.011118304469471431,
"pose": {
"rotation": {
"radians": -2.2210307739830832
},
"translation": {
"x": 1.919535537520891,
"y": 2.2249841345178982
}
},
"time": 1.786619407060236,
"velocity": -0.9969031659047247
},
{
"acceleration": 0.0008396891540646775,
"curvature": 0.011328042427271118,
"pose": {
"rotation": {
"radians": -2.2218204929353673
},
"translation": {
"x": 1.9621555986995025,
"y": 2.2809750560986046
}
},
"time": 1.857206620324147,
"velocity": -0.9968449309131799
},
{
"acceleration": 0.000860560012927443,
"curvature": 0.011545832561987863,
"pose": {
"rotation": {
"radians": -2.2226413817168207
},
"translation": {
"x": 2.0056763254240444,
"y": 2.3380537770448946
}
},
"time": 1.9292136552914738,
"velocity": -0.9967844673869015
},
{
"acceleration": 0.0008871182951001217,
"curvature": 0.011773324316146106,
"pose": {
"rotation": {
"radians": -2.2234941609570242
},
"translation": {
"x": 2.050073607195202,
"y": 2.3961811860941635
}
},
"time": 2.0025950409483793,
"velocity": -0.996721318300712
},
{
"acceleration": 0.0009190143495142627,
"curvature": 0.012012106590153329,
"pose": {
"rotation": {
"radians": -2.2243796471414368
},
"translation": {
"x": 2.0953218308842225,
"y": 2.4553160902763853
}
},
"time": 2.077302775313695,
"velocity": -0.996655043702771
},
{
"acceleration": 0.0009560292856959205,
"curvature": 0.012263733340338612,
"pose": {
"rotation": {
"radians": -2.2252987536777558
},
"translation": {
"x": 2.1413939435151463,
"y": 2.5154153077743207
}
},
"time": 2.1532864383058286,
"velocity": -0.9965852136261526
},
{
"acceleration": 0.000998058366333182,
"curvature": 0.01252974704394275,
"pose": {
"rotation": {
"radians": -2.2262524926136327
},
"translation": {
"x": 2.188261515047031,
"y": 2.5764337607837273
}
},
"time": 2.2304933048245994,
"velocity": -0.9965114016007038
},
{
"acceleration": 0.0010450985161334018,
"curvature": 0.012811700543029204,
"pose": {
"rotation": {
"radians": -2.227241977012348
},
"translation": {
"x": 2.2358948011561823,
"y": 2.638324568373565
}
},
"time": 2.3088684580520993,
"velocity": -0.9964331786233125
},
{
"acceleration": 0.0010972393117853157,
"curvature": 0.013111177733902912,
"pose": {
"rotation": {
"radians": -2.2282684239977364
},
"translation": {
"x": 2.284262806018382,
"y": 2.701039139346209
}
},
"time": 2.3883549029790503,
"velocity": -0.9963501074576666
},
{
"acceleration": 0.001154656961124787,
"curvature": 0.013429813531642935,
"pose": {
"rotation": {
"radians": -2.2293331584850677
},
"translation": {
"x": 2.3333333450911136,
"y": 2.7645272650976587
}
},
"time": 2.4688936801647205,
"velocity": -0.9962617371452154
},
{
"acceleration": 0.001217610900687432,
"curvature": 0.013769313511011641,
"pose": {
"rotation": {
"radians": -2.2304376176207343
},
"translation": {
"x": 2.383073107895795,
"y": 2.8287372124777406
}
},
"time": 2.550423979740427,
"velocity": -0.9961675976172677
},
{
"acceleration": 0.0012864427446922764,
"curvature": 0.014131473605331284,
"pose": {
"rotation": {
"radians": -2.2315833559603004
},
"translation": {
"x": 2.4334477208000003,
"y": 2.8936158166503256
}
},
"time": 2.632883255668488,
"velocity": -0.9960671943040349
},
{
"acceleration": 0.0013615774084382146,
"curvature": 0.014518200233856228,
"pose": {
"rotation": {
"radians": -2.2327720514218354
},
"translation": {
"x": 2.484421809799695,
"y": 2.959108573953534
}
},
"time": 2.716207340271589,
"velocity": -0.9959600026399391
},
{
"acceleration": 0.0014435263091772982,
"curvature": 0.01493153122571977,
"pose": {
"rotation": {
"radians": -2.2340055120594946
},
"translation": {
"x": 2.5359590633014575,
"y": 3.025159734759944
}
},
"time": 2.8003305590503036,
"velocity": -0.9958454623657249
},
{
"acceleration": 0.0015328926208604677,
"curvature": 0.015373657914738378,
"pose": {
"rotation": {
"radians": -2.2352856837110338
},
"translation": {
"x": 2.588022294904713,
"y": 3.0917123963368
}
},
"time": 2.885185845808123,
"velocity": -0.9957229715268172
},
{
"acceleration": 0.0016303786285845649,
"curvature": 0.015846948794504618,
"pose": {
"rotation": {
"radians": -2.2366146585825653
},
"translation": {
"x": 2.640573506183957,
"y": 3.1587085957062238
}
},
"time": 2.9707048581084647,
"velocity": -0.9955918800639187
},
{
"acceleration": 0.001736795297235796,
"curvature": 0.016353975147703554,
"pose": {
"rotation": {
"radians": -2.2379946848443906
},
"translation": {
"x": 2.6935739494709843,
"y": 3.2260894025054236
}
},
"time": 3.0568180930904374,
"velocity": -0.9954514828859659
},
{
"acceleration": 0.0018530742391388232,
"curvature": 0.016897539098138684,
"pose": {
"rotation": {
"radians": -2.23942817732342
},
"translation": {
"x": 2.746984190637121,
"y": 3.2937950118469006
}
},
"time": 3.1434550036743563,
"velocity": -0.9953010123070967
},
{
"acceleration": 0.001980282340769309,
"curvature": 0.01748070457953479,
"pose": {
"rotation": {
"radians": -2.2409177293906315
},
"translation": {
"x": 2.800764171875448,
"y": 3.3617648371786606
}
},
"time": 3.2305441151926035,
"velocity": -0.9951396297180327
},
{
"acceleration": 0.0021196393911567654,
"curvature": 0.01810683177309529,
"pose": {
"rotation": {
"radians": -2.2424661261565015
},
"translation": {
"x": 2.8548732744830305,
"y": 3.4299376031444204
}
},
"time": 3.3180131424862562,
"velocity": -0.9949664163479188
},
{
"acceleration": 0.002272539148419831,
"curvature": 0.01877961563771194,
"pose": {
"rotation": {
"radians": -2.2440763591035666
},
"translation": {
"x": 2.9092703816431467,
"y": 3.498251438443816
}
},
"time": 3.405789107513551,
"velocity": -0.9947803629548502
},
{
"acceleration": 0.002440574389175054,
"curvature": 0.019503129244835354,
"pose": {
"rotation": {
"radians": -2.245751642303541
},
"translation": {
"x": 2.963913941207515,
"y": 3.5666439686926203
}
},
"time": 3.493798457521938,
"velocity": -0.9945803582615291
},
{
"acceleration": 0.002625566613133958,
"curvature": 0.020281872737007076,
"pose": {
"rotation": {
"radians": -2.247495430387111
},
"translation": {
"x": 3.0187620284785233,
"y": 3.63505240928294
}
},
"time": 3.5819671838435223,
"velocity": -0.9943651759261425
},
{
"acceleration": 0.0028296012269239503,
"curvature": 0.021120828858306306,
"pose": {
"rotation": {
"radians": -2.2493114384579753
},
"translation": {
"x": 3.0737724089914575,
"y": 3.7034136582434307
}
},
"time": 3.6702209413807703,
"velocity": -0.9941334598068691
},
{
"acceleration": 0.0030550692136174793,
"curvature": 0.022025526160655458,
"pose": {
"rotation": {
"radians": -2.2512036641694264
},
"translation": {
"x": 3.128902601296726,
"y": 3.771664389099505
}
},
"time": 3.7584851688588223,
"velocity": -0.9938837072405037
},
{
"acceleration": 0.0033047165153576785,
"curvature": 0.023002111177224862,
"pose": {
"rotation": {
"radians": -2.253176412212265
},
"translation": {
"x": 3.1841099397420924,
"y": 3.8397411437335425
}
},
"time": 3.846685209931178,
"velocity": -0.9936142500103837
},
{
"acceleration": 0.003581702625108987,
"curvature": 0.02405743107944106,
"pose": {
"rotation": {
"radians": -2.2552343214978
},
"translation": {
"x": 3.2393516372549014,
"y": 3.907580425245098
}
},
"time": 3.9347464352374617,
"velocity": -0.9933232326247514
},
{
"acceleration": 0.0038896702120604695,
"curvature": 0.025199128605211785,
"pose": {
"rotation": {
"radians": -2.257382395359761
},
"translation": {
"x": 3.294584848124305,
"y": 3.97511879081111
}
},
"time": 4.022594365525142,
"velocity": -0.9930085874622296
},
{
"acceleration": 0.0042328280080428824,
"curvature": 0.026435751372631162,
"pose": {
"rotation": {
"radians": -2.2596260351451405
},
"translation": {
"x": 3.3497667307834966,
"y": 4.042292944546109
}
},
"time": 4.110154795963327,
"velocity": -0.992668006264199
},
{
"acceleration": 0.004616049677762432,
"curvature": 0.027776878087633405,
"pose": {
"rotation": {
"radians": -2.2619710776171793
},
"translation": {
"x": 3.404854510591931,
"y": 4.109039830362427
}
},
"time": 4.197353921794311,
"velocity": -0.9922989073621048
},
{
"acceleration": 0.005044992006517509,
"curvature": 0.02923326463070975,
"pose": {
"rotation": {
"radians": -2.2644238366552774
},
"translation": {
"x": 3.4598055426175582,
"y": 4.175296724830409
}
},
"time": 4.284118465489627,
"velocity": -0.9918983979181388
},
{
"acceleration": 0.005526236493811355,
"curvature": 0.030817013585316605,
"pose": {
"rotation": {
"radians": -2.26699114980782
},
"translation": {
"x": 3.5145773744190523,
"y": 4.241001330038619
}
},
"time": 4.370375805601125,
"velocity": -0.9914632303267729
},
{
"acceleration": 0.0060674593753243045,
"curvature": 0.032541771471984546,
"pose": {
"rotation": {
"radians": -2.2696804303366553
},
"translation": {
"x": 3.569127808828034,
"y": 4.306091866454051
}
},
"time": 4.456054107525846,
"velocity": -0.9909897517679487
},
{
"acceleration": 0.006677636253257208,
"curvature": 0.03442295880596955,
"pose": {
"rotation": {
"radians": -2.2724997254880743
},
"translation": {
"x": 3.623414966731303,
"y": 4.370507165782333
}
},
"time": 4.5410824564353485,
"velocity": -0.9904738457151894
},
{
"acceleration": 0.007367288951076561,
"curvature": 0.03647803913833507,
"pose": {
"rotation": {
"radians": -2.2754577818371713
},
"translation": {
"x": 3.677397349853065,
"y": 4.434186763827941
}
},
"time": 4.625390992658186,
"velocity": -0.9899108639772487
},
{
"acceleration": 0.008148783991465776,
"curvature": 0.03872683451538709,
"pose": {
"rotation": {
"radians": -2.2785641186831382
},
"translation": {
"x": 3.7310339035371634,
"y": 4.497070993354411
}
},
"time": 4.708911049847824,
"velocity": -0.9892955475827222
},
{
"acceleration": 0.009036694309268983,
"curvature": 0.04119189635556771,
"pose": {
"rotation": {
"radians": -2.2818291106258446
},
"translation": {
"x": 3.7842840795292965,
"y": 4.559101076944538
}
},
"time": 4.791575296319563,
"velocity": -0.9886219344944067
},
{
"acceleration": 0.010048238557760615,
"curvature": 0.043898942666933505,
"pose": {
"rotation": {
"radians": -2.285264080632903
},
"translation": {
"x": 3.8371078987592595,
"y": 4.620219219860595
}
},
"time": 4.8733178799998385,
"velocity": -0.9878832517536382
},
{
"acceleration": 0.011203815770372582,
"curvature": 0.04687737490122197,
"pose": {
"rotation": {
"radians": -2.2888814051161632
},
"translation": {
"x": 3.8894660141231627,
"y": 4.680368702904532
}
},
"time": 4.95407457750144,
"velocity": -0.9870717891920052
},
{
"acceleration": 0.01252765734929974,
"curvature": 0.050160890674742206,
"pose": {
"rotation": {
"radians": -2.2926946327828555
},
"translation": {
"x": 3.9413197732656657,
"y": 4.739493975278199
}
},
"time": 5.033782947920316,
"velocity": -0.9861787512944755
},
{
"acceleration": 0.01404862354041801,
"curvature": 0.05378821222406756,
"pose": {
"rotation": {
"radians": -2.29671861931611
},
"translation": {
"x": 3.9926312813621996,
"y": 4.797540747443535
}
},
"time": 5.112382492046191,
"velocity": -0.9851940831378554
},
{
"acceleration": 0.015801177913736943,
"curvature": 0.05780395498601971,
"pose": {
"rotation": {
"radians": -2.300969680280356
},
"translation": {
"x": 4.043363463901201,
"y": 4.854456083982798
}
},
"time": 5.189814817792855,
"velocity": -0.9841062655435815
},
{
"acceleration": 0.01782658110924649,
"curvature": 0.062259666324927826,
"pose": {
"rotation": {
"radians": -2.3054657650483628
},
"translation": {
"x": 4.093480129466336,
"y": 4.9101884964587645
}
},
"time": 5.266023812787402,
"velocity": -0.9829020736550456
},
{
"acceleration": 0.02017435442690794,
"curvature": 0.06721507146549756,
"pose": {
"rotation": {
"radians": -2.310226655019646
},
"translation": {
"x": 4.14294603251873,
"y": 4.964688036274932
}
},
"time": 5.340955825215327,
"velocity": -0.9815662920578201
},
{
"acceleration": 0.02290407488936375,
"curvature": 0.0727395724939984,
"pose": {
"rotation": {
"radians": -2.315274189957194
},
"translation": {
"x": 4.191726936179196,
"y": 5.017906387535737
}
},
"time": 5.414559854203495,
"velocity": -0.9800813782897644
},
{
"acceleration": 0.026087576214635328,
"curvature": 0.07891405732934907,
"pose": {
"rotation": {
"radians": -2.3206325269259453
},
"translation": {
"x": 4.239789675010461,
"y": 5.069796959906762
}
},
"time": 5.486787751241576,
"velocity": -0.9784270651269029
},
{
"acceleration": 0.029811644481939865,
"curvature": 0.08583308942710717,
"pose": {
"rotation": {
"radians": -2.326328437088863
},
"translation": {
"x": 4.287102217799395,
"y": 5.120314981474943
}
},
"time": 5.5575944343994035,
"velocity": -0.9765798903835176
},
{
"acceleration": 0.03418131246447558,
"curvature": 0.09360756640381768,
"pose": {
"rotation": {
"radians": -2.332391646523489
},
"translation": {
"x": 4.333633730339244,
"y": 5.169417591608783
}
},
"time": 5.626938117399744,
"velocity": -0.9745126411588431
},
{
"acceleration": 0.03932387111577588,
"curvature": 0.10236795768321139,
"pose": {
"rotation": {
"radians": -2.3388552282837973
},
"translation": {
"x": 4.379354638211847,
"y": 5.217063933818549
}
},
"time": 5.6947805559599,
"velocity": -0.9721936975680664
},
{
"acceleration": 0.04539372759581893,
"curvature": 0.11226825881794555,
"pose": {
"rotation": {
"radians": -2.3457560541694433
},
"translation": {
"x": 4.424236689569874,
"y": 5.263215248616499
}
},
"time": 5.76108731422879,
"velocity": -0.9695862591517956
},
{
"acceleration": 0.05677893457488946,
"curvature": 0.12349083473525406,
"pose": {
"rotation": {
"radians": -2.3531353160964352
},
"translation": {
"x": 4.468253017919054,
"y": 5.307834966377074
}
},
"time": 5.8258280546256,
"velocity": -0.9666474356178713
},
{
"acceleration": 0.07719722508734957,
"curvature": 0.15081117795275106,
"pose": {
"rotation": {
"radians": -2.3695192258874593
},
"translation": {
"x": 4.553588343072408,
"y": 5.392344838756069
}
},
"time": 5.950528714118456,
"velocity": -0.9595670650310808
},
{
"acceleration": 0.10626526744697698,
"curvature": 0.18661843148906787,
"pose": {
"rotation": {
"radians": -2.388448279395231
},
"translation": {
"x": 4.635175774503496,
"y": 5.470348319882829
}
},
"time": 6.068723150491248,
"velocity": -0.9504427825223379
},
{
"acceleration": 0.14782814410015588,
"curvature": 0.2342126142221252,
"pose": {
"rotation": {
"radians": -2.4104827597565213
},
"translation": {
"x": 4.712856656755397,
"y": 5.54164115953305
}
},
"time": 6.180354537605869,
"velocity": -0.9385802433151258
},
{
"acceleration": 0.2071362730284638,
"curvature": 0.2984096154972576,
"pose": {
"rotation": {
"radians": -2.4363396061752445
},
"translation": {
"x": 4.7865005271139704,
"y": 5.60606305985754
}
},
"time": 6.285472360783013,
"velocity": -0.9230408706030002
},
{
"acceleration": 0.29071988324765724,
"curvature": 0.3863107357153264,
"pose": {
"rotation": {
"radians": -2.4669424413118426
},
"translation": {
"x": 4.856007124639172,
"y": 5.663500646908886
}
},
"time": 6.3842528600462565,
"velocity": -0.902579846137721
},
{
"acceleration": 0.4051197967529422,
"curvature": 0.508453284454809,
"pose": {
"rotation": {
"radians": -2.503486512530812
},
"translation": {
"x": 4.921308399196349,
"y": 5.713890442168161
}
},
"time": 6.477024375867491,
"velocity": -0.8756093218894635
},
{
"acceleration": 0.5530889553624286,
"curvature": 0.6804491599409356,
"pose": {
"rotation": {
"radians": -2.5475188841195835
},
"translation": {
"x": 4.982370520487523,
"y": 5.7572218340715935
}
},
"time": 6.5642976974037275,
"velocity": -0.8402531716067492
},
{
"acceleration": 0.7258387274202002,
"curvature": 0.9250508833896961,
"pose": {
"rotation": {
"radians": -2.601026581938357
},
"translation": {
"x": 5.039195887082716,
"y": 5.793540049537253
}
},
"time": 6.646799216064169,
"velocity": -0.7946224928350318
},
{
"acceleration": 0.8927640995035782,
"curvature": 1.2739213507972933,
"pose": {
"rotation": {
"radians": -2.666504873288265
},
"translation": {
"x": 5.091825135451227,
"y": 5.822949125491753
}
},
"time": 6.725498883253892,
"velocity": -0.7374992265536501
},
{
"acceleration": 0.9850859138724093,
"curvature": 1.766446625909069,
"pose": {
"rotation": {
"radians": -2.7469301645853106
},
"translation": {
"x": 5.140339148992943,
"y": 5.845614880396948
}
},
"time": 6.801612333435385,
"velocity": -0.6695478707422599
},
{
"acceleration": 1.0115092574788132,
"curvature": 2.078658343763817,
"pose": {
"rotation": {
"radians": -2.7937478335212416
},
"translation": {
"x": 5.163089718196348,
"y": 5.854488455388051
}
},
"time": 6.839119346327594,
"velocity": -0.632600240670713
},
{
"acceleration": 1.0031876615012811,
"curvature": 2.438594375736806,
"pose": {
"rotation": {
"radians": -2.845468743925357
},
"translation": {
"x": 5.184861067069637,
"y": 5.861767885776562
}
},
"time": 6.8765265141288525,
"velocity": -0.594762544143677
},
{
"acceleration": 0.9564852757617055,
"curvature": 2.8446965783442995,
"pose": {
"rotation": {
"radians": -2.9023794366785913
},
"translation": {
"x": 5.205675520133781,
"y": 5.86749259818496
}
},
"time": 6.914006992432166,
"velocity": -0.557162590762626
},
{
"acceleration": 0.8718005459037116,
"curvature": 3.2891907940551848,
"pose": {
"rotation": {
"radians": -2.9646244335692398
},
"translation": {
"x": 5.225558294036265,
"y": 5.871706437742944
}
},
"time": 6.951705245193935,
"velocity": -0.5211047670740514
},
{
"acceleration": 0.7533179978835016,
"curvature": 3.7556120356341025,
"pose": {
"rotation": {
"radians": -3.032129690160241
},
"translation": {
"x": 5.244537560333352,
"y": 5.874457760947617
}
},
"time": 6.989715718432908,
"velocity": -0.48796721575425595
},
{
"acceleration": 0.6075724216763332,
"curvature": 4.217102078930743,
"pose": {
"rotation": {
"radians": -3.1045202483114993
},
"translation": {
"x": 5.262644508272267,
"y": 5.8757995285237214
}
},
"time": 7.028059209960735,
"velocity": -0.45908237348465086
},
{
"acceleration": 0.44131359889072874,
"curvature": 4.636838242545291,
"pose": {
"rotation": {
"radians": 3.1021359840322527
},
"translation": {
"x": 5.279913407573467,
"y": 5.8757893982838
}
},
"time": 7.0666613952095965,
"velocity": -0.4356287503110018
},
{
"acceleration": 0.25943111106305483,
"curvature": 4.971896083294156,
"pose": {
"rotation": {
"radians": 3.0226218275902865
},
"translation": {
"x": 5.296381671212856,
"y": 5.874489817988472
}
},
"time": 7.105340142514851,
"velocity": -0.41855929313713514
},
{
"acceleration": 0.06353016064213399,
"curvature": 5.180761633839386,
"pose": {
"rotation": {
"radians": 2.9416565572745026
},
"translation": {
"x": 5.312089918203988,
"y": 5.871968118206592
}
},
"time": 7.143808584551176,
"velocity": -0.4085793824787865
},
{
"acceleration": -0.14872692502769697,
"curvature": 5.232675360445816,
"pose": {
"rotation": {
"radians": 2.8610552930720234
},
"translation": {
"x": 5.3270820363803395,
"y": 5.8682966051754555
}
},
"time": 7.18169777952854,
"velocity": -0.40617227583527343
},
{
"acceleration": -0.3838999914994589,
"curvature": 5.115206524702391,
"pose": {
"rotation": {
"radians": 2.78275367784392
},
"translation": {
"x": 5.341405245177491,
"y": 5.863552653661067
}
},
"time": 7.218596260783302,
"velocity": -0.4116600734904864
},
{
"acceleration": -0.6534141738323075,
"curvature": 4.8365924229486135,
"pose": {
"rotation": {
"radians": 2.708623351653768
},
"translation": {
"x": 5.3551101584154,
"y": 5.857818799818261
}
},
"time": 7.254096721068366,
"velocity": -0.4252886998921489
},
{
"acceleration": -0.9755922906787967,
"curvature": 4.421837345864024,
"pose": {
"rotation": {
"radians": 2.640312000343058
},
"translation": {
"x": 5.368250847080592,
"y": 5.851182834051006
}
},
"time": 7.287836811239166,
"velocity": -0.4473349530361302
},
{
"acceleration": -1.3806192661331518,
"curvature": 3.9046640627968956,
"pose": {
"rotation": {
"radians": 2.579145904950082
},
"translation": {
"x": 5.380884902108402,
"y": 5.843737893872522
}
},
"time": 7.31952377156463,
"velocity": -0.4782485072446978
},
{
"acceleration": 1.0853602514513752,
"curvature": 3.3189007735431018,
"pose": {
"rotation": {
"radians": 2.526107799565358
},
"translation": {
"x": 5.393073497165226,
"y": 5.835582556765544
}
},
"time": 7.348939440348395,
"velocity": -0.5188603462937541
},
{
"acceleration": 1.9999999999999998,
"curvature": 2.692126190124181,
"pose": {
"rotation": {
"radians": 2.4818783137581297
},
"translation": {
"x": 5.40488145143069,
"y": 5.826820933042541
}
},
"time": 7.378171299128629,
"velocity": -0.48713324869764846
},
{
"acceleration": 1.9999999999999998,
"curvature": -2.834341396626349e-14,
"pose": {
"rotation": {
"radians": 2.400838346544965
},
"translation": {
"x": 5.449734352941178,
"y": 5.787992627450983
}
},
"time": 7.621737923477453,
"velocity": -0.0
}
]