[
{
"acceleration": 2.0,
"curvature": 0.0,
"pose": {
"rotation": {
"radians": -2.4287939439228396
},
"translation": {
"x": 6.819999607843136,
"y": 2.334553843137255
}
},
"time": 0.0,
"velocity": 0.0
},
{
"acceleration": 2.0,
"curvature": -1.234289260661032,
"pose": {
"rotation": {
"radians": -2.4577808194441952
},
"translation": {
"x": 6.78554990131751,
"y": 2.305362952893562
}
},
"time": 0.21249487874299827,
"velocity": 0.42498975748599654
},
{
"acceleration": -0.21337173585068914,
"curvature": -2.1438357971450746,
"pose": {
"rotation": {
"radians": -2.535858862081134
},
"translation": {
"x": 6.749372965368793,
"y": 2.277962567483528
}
},
"time": 0.3008926033490921,
"velocity": 0.6017852066981842
},
{
"acceleration": -0.4656692160971541,
"curvature": -2.4504013026102056,
"pose": {
"rotation": {
"radians": -2.588761005210424
},
"translation": {
"x": 6.730187781685111,
"y": 2.2653966328426867
}
},
"time": 0.3392637714384854,
"velocity": 0.5935978839563318
},
{
"acceleration": -0.17439072960113064,
"curvature": -2.644426656289716,
"pose": {
"rotation": {
"radians": -2.648155705080242
},
"translation": {
"x": 6.71007560690755,
"y": 2.2537872490693065
}
},
"time": 0.3790045965335152,
"velocity": 0.5750918050872752
},
{
"acceleration": 0.060260698873368455,
"curvature": -2.7234695455895013,
"pose": {
"rotation": {
"radians": -2.711828803897561
},
"translation": {
"x": 6.688915434004725,
"y": 2.243257158012165
}
},
"time": 0.4203625535852075,
"velocity": 0.5678793607822183
},
{
"acceleration": 0.2534490801162685,
"curvature": -2.6951733604298216,
"pose": {
"rotation": {
"radians": -2.7775773536777013
},
"translation": {
"x": 6.666606008816587,
"y": 2.233908092080509
}
},
"time": 0.46286231645229725,
"velocity": 0.5704404261945416
},
{
"acceleration": 0.41142185846487794,
"curvature": -2.576959764548148,
"pose": {
"rotation": {
"radians": -2.8433595314532374
},
"translation": {
"x": 6.643065038490952,
"y": 2.225821627890925
}
},
"time": 0.5060822717575872,
"velocity": 0.5813944841093336
},
{
"acceleration": 0.5357594123129659,
"curvature": -2.3927042024090897,
"pose": {
"rotation": {
"radians": -2.9074313016643454
},
"translation": {
"x": 6.618228399920036,
"y": 2.2190600399142166
}
},
"time": 0.5496835009376378,
"velocity": 0.5993329828499431
},
{
"acceleration": 0.6263445484302916,
"curvature": -2.1679798586415475,
"pose": {
"rotation": {
"radians": -2.968434473708645
},
"translation": {
"x": 6.592049348176991,
"y": 2.213667154122282
}
},
"time": 0.5934257797241842,
"velocity": 0.6227683204258531
},
{
"acceleration": 0.6835321639649741,
"curvature": -1.9258031158778592,
"pose": {
"rotation": {
"radians": -3.025421689418004
},
"translation": {
"x": 6.564497724952434,
"y": 2.209669201634987
}
},
"time": 0.637167525967403,
"velocity": 0.6501657247241144
},
{
"acceleration": 0.7094401419863773,
"curvature": -1.6840828237645546,
"pose": {
"rotation": {
"radians": -3.077825834961419
},
"translation": {
"x": 6.535559166990989,
"y": 2.207075672367039
}
},
"time": 0.680852283464732,
"velocity": 0.6800256615485488
},
{
"acceleration": 0.6969340793283822,
"curvature": -1.4549213110496213,
"pose": {
"rotation": {
"radians": -3.1253942422347145
},
"translation": {
"x": 6.505234314527811,
"y": 2.205880168674865
}
},
"time": 0.7244874201428407,
"velocity": 0.7109821791090613
},
{
"acceleration": 0.6251145846539103,
"curvature": -1.0579108286472867,
"pose": {
"rotation": {
"radians": 3.0770704646871456
},
"translation": {
"x": 6.4404985551087615,
"y": 2.207583331533395
}
},
"time": 0.8118310141547631,
"velocity": 0.7718549063869924
},
{
"acceleration": 0.5284121829010494,
"curvature": -0.7497149824349285,
"pose": {
"rotation": {
"radians": 3.0141869488663775
},
"translation": {
"x": 6.370565558975535,
"y": 2.2144421964776244
}
},
"time": 0.8997401454568652,
"velocity": 0.826808186488192
},
{
"acceleration": 0.43920237829296077,
"curvature": -0.5171293232294578,
"pose": {
"rotation": {
"radians": 2.966843485565323
},
"translation": {
"x": 6.295899834195117,
"y": 2.2259207022421226
}
},
"time": 0.9885847016406597,
"velocity": 0.8737547323601458
},
{
"acceleration": 0.3732729677997941,
"curvature": -0.3401636681323889,
"pose": {
"rotation": {
"radians": 2.932809450829076
},
"translation": {
"x": 6.217129954590307,
"y": 2.24131053672898
}
},
"time": 1.0784122565629195,
"velocity": 0.9132072081182439
},
{
"acceleration": 0.3366752545956844,
"curvature": -0.20038655090885424,
"pose": {
"rotation": {
"radians": 2.9103076600742073
},
"translation": {
"x": 6.135023229708802,
"y": 2.2597584537078266
}
},
"time": 1.1688909432678678,
"velocity": 0.9469804560272277
},
{
"acceleration": 0.17155979451029144,
"curvature": -0.08264961566422308,
"pose": {
"rotation": {
"radians": 2.8981267663227523
},
"translation": {
"x": 6.05046037479228,
"y": 2.2802935895158374
}
},
"time": 1.2593296055983216,
"velocity": 0.9774289156926264
},
{
"acceleration": -0.324232140048112,
"curvature": 0.025675355118554948,
"pose": {
"rotation": {
"radians": 2.8956356579467926
},
"translation": {
"x": 5.96441018074548,
"y": 2.3018547797577433
}
},
"time": 1.34937684235166,
"velocity": 0.9928774011262487
},
{
"acceleration": -0.33757644011730253,
"curvature": 0.13623355688288863,
"pose": {
"rotation": {
"radians": 2.9027883770153178
},
"translation": {
"x": 5.877904184105285,
"y": 2.3233178760058397
}
},
"time": 1.4405008779581,
"velocity": 0.9633320600517523
},
{
"acceleration": -0.38572175042503054,
"curvature": 0.261553870407433,
"pose": {
"rotation": {
"radians": 2.9201620900928233
},
"translation": {
"x": 5.792011337009804,
"y": 2.3435230625
}
},
"time": 1.5336160407834296,
"velocity": 0.9318985748642346
},
{
"acceleration": -0.4683763556421378,
"curvature": 0.4173426276412118,
"pose": {
"rotation": {
"radians": 2.949051483735494
},
"translation": {
"x": 5.707812677167452,
"y": 2.3613021728476786
}
},
"time": 1.6277957312683378,
"velocity": 0.8955714197959082
},
{
"acceleration": -0.5822207595246516,
"curvature": 0.62546905690586,
"pose": {
"rotation": {
"radians": 2.9916340215700226
},
"translation": {
"x": 5.626375997826035,
"y": 2.3755060067239278
}
},
"time": 1.7224436798789071,
"velocity": 0.8512405585566853
},
{
"acceleration": -0.7098655917917149,
"curvature": 0.9176004445720455,
"pose": {
"rotation": {
"radians": 3.0512031908858503
},
"translation": {
"x": 5.548730517741827,
"y": 2.3850316465714014
}
},
"time": 1.8174273775839656,
"velocity": 0.7959390779363863
},
{
"acceleration": -0.7917238854004109,
"curvature": 1.337661075793863,
"pose": {
"rotation": {
"radians": 3.132404348930634
},
"translation": {
"x": 5.475841551148659,
"y": 2.388849774300369
}
},
"time": 1.913221033545498,
"velocity": 0.7279384576573611
},
{
"acceleration": -0.8216167466366769,
"curvature": 1.6115745633147975,
"pose": {
"rotation": {
"radians": -3.1002372675248298
},
"translation": {
"x": 5.441458713654134,
"y": 2.388323706540941
}
},
"time": 1.9617399054872167,
"velocity": 0.6895249078484187
},
{
"acceleration": -0.8211426103640764,
"curvature": 1.935078301926862,
"pose": {
"rotation": {
"radians": -3.0419706592340834
},
"translation": {
"x": 5.408585177726994,
"y": 2.3860319879887246
}
},
"time": 2.0109755159980987,
"velocity": 0.6490721057217972
},
{
"acceleration": -0.7825477039126555,
"curvature": 2.3090039367987356,
"pose": {
"rotation": {
"radians": -2.97518449010502
},
"translation": {
"x": 5.377312354720139,
"y": 2.381878818200743
}
},
"time": 2.0611732682978468,
"velocity": 0.6078525923639726
},
{
"acceleration": -0.7024235746058869,
"curvature": 2.7262716601086656,
"pose": {
"rotation": {
"radians": -2.8992397176272595
},
"translation": {
"x": 5.347722912573013,
"y": 2.3757781185819953
}
},
"time": 2.112576649469609,
"velocity": 0.5676269944546629
},
{
"acceleration": -0.6168563016957215,
"curvature": 3.1671010789861187,
"pose": {
"rotation": {
"radians": -2.813839571546584
},
"translation": {
"x": 5.3198899842481495,
"y": 2.3676543860323367
}
},
"time": 2.16538168926911,
"velocity": 0.5305354896414914
},
{
"acceleration": -0.548293233232537,
"curvature": 3.385675689105079,
"pose": {
"rotation": {
"radians": -2.767652086761939
},
"translation": {
"x": 5.306652264800784,
"y": 2.362813389503655
}
},
"time": 2.1923729477455036,
"velocity": 0.5138857617596297
},
{
"acceleration": -0.4722847558733432,
"curvature": 3.5951647117044163,
"pose": {
"rotation": {
"radians": -2.7192648063291758
},
"translation": {
"x": 5.293876376167694,
"y": 2.35744354659335
}
},
"time": 2.219740609227856,
"velocity": 0.49888025815945714
},
{
"acceleration": -0.3900978082775337,
"curvature": 3.7885597940364053,
"pose": {
"rotation": {
"radians": -2.6688421357118193
},
"translation": {
"x": 5.281568425763835,
"y": 2.3515387739114555
}
},
"time": 2.247467959387968,
"velocity": 0.4857850533580738
},
{
"acceleration": -0.30301014320114267,
"curvature": 3.958378281997861,
"pose": {
"rotation": {
"radians": -2.6166097263904984
},
"translation": {
"x": 5.269733776649949,
"y": 2.3450938090952214
}
},
"time": 2.275524210841088,
"velocity": 0.47484037115772837
},
{
"acceleration": -0.2122352516239084,
"curvature": 4.097201195916413,
"pose": {
"rotation": {
"radians": -2.562854538865782
},
"translation": {
"x": 5.2583770227962185,
"y": 2.33810423748558
}
},
"time": 2.303864203126148,
"velocity": 0.4662530660371131
},
{
"acceleration": -0.11888106918701419,
"curvature": 4.1983279475683215,
"pose": {
"rotation": {
"radians": -2.5079205534836633
},
"translation": {
"x": 5.247501964345899,
"y": 2.3305665188036144
}
},
"time": 2.3324292110573577,
"velocity": 0.4601905643911938
},
{
"acceleration": -0.02394724498427033,
"curvature": 4.2564613543228305,
"pose": {
"rotation": {
"radians": -2.4521997628028394
},
"translation": {
"x": 5.237111582878963,
"y": 2.3224780138270136
}
},
"time": 2.361148968873013,
"velocity": 0.45677632887527664
},
{
"acceleration": 0.07164273948998671,
"curvature": 4.268308355156957,
"pose": {
"rotation": {
"radians": -2.396118726882986
},
"translation": {
"x": 5.227208016675745,
"y": 2.313837011066547
}
},
"time": 2.3899448456234405,
"velocity": 0.4560867469601973
},
{
"acceleration": 0.16698591657458142,
"curvature": 4.232980363830625,
"pose": {
"rotation": {
"radians": -2.3401216920933767
},
"translation": {
"x": 5.217792535980582,
"y": 2.3046427534425282
}
},
"time": 2.418733914500076,
"velocity": 0.4581492747218854
},
{
"acceleration": 0.2611371086020045,
"curvature": 4.15210883613687,
"pose": {
"rotation": {
"radians": -2.284651891927145
},
"translation": {
"x": 5.208865518265448,
"y": 2.2948954649612707
}
},
"time": 2.447433492425783,
"velocity": 0.46294170004711316
},
{
"acceleration": 0.35305729345328574,
"curvature": 4.029650077716777,
"pose": {
"rotation": {
"radians": -2.230132994611226
},
"translation": {
"x": 5.200426423493607,
"y": 2.2845963773915656
}
},
"time": 2.475965632932713,
"velocity": 0.47039250072131894
},
{
"acceleration": 0.4415891046172673,
"curvature": 3.871420523477424,
"pose": {
"rotation": {
"radians": -2.1769526347564954
},
"translation": {
"x": 5.192473769383247,
"y": 2.2737477569411375
}
},
"time": 2.5042610632872497,
"velocity": 0.48038240877938765
},
{
"acceleration": 0.5254699140038089,
"curvature": 3.684457545300996,
"pose": {
"rotation": {
"radians": -2.125449573219387
},
"translation": {
"x": 5.185005106671124,
"y": 2.262352930933111
}
},
"time": 2.5322621636023936,
"velocity": 0.4927473895958503
},
{
"acceleration": 0.6033848993435338,
"curvature": 3.476325223500483,
"pose": {
"rotation": {
"radians": -2.0759053861134
},
"translation": {
"x": 5.1780169943762075,
"y": 2.2504163144824814
}
},
"time": 2.559924759431335,
"velocity": 0.5072832514472062
},
{
"acceleration": 0.6740536770214725,
"curvature": 3.254475989258401,
"pose": {
"rotation": {
"radians": -2.028540865226824
},
"translation": {
"x": 5.1715049750633115,
"y": 2.237943437172568
}
},
"time": 2.5872186920737965,
"velocity": 0.5237519982473672
},
{
"acceleration": 0.7632824211239082,
"curvature": 3.0257462914175006,
"pose": {
"rotation": {
"radians": -1.9835166861766997
},
"translation": {
"x": 5.165463550106746,
"y": 2.224940969731489
}
},
"time": 2.61412729678868,
"velocity": 0.541889842198952
},
{
"acceleration": 0.849433575362656,
"curvature": 2.57007315207642,
"pose": {
"rotation": {
"radians": -1.9008582351456236
},
"translation": {
"x": 5.1547651343891685,
"y": 2.197379813151084
}
},
"time": 2.6667366052120722,
"velocity": 0.5820456025060132
},
{
"acceleration": 0.8965363732702473,
"curvature": 2.1429360164342666,
"pose": {
"rotation": {
"radians": -1.8282182373986033
},
"translation": {
"x": 5.1458559944262054,
"y": 2.167810047167791
}
},
"time": 2.717886468788075,
"velocity": 0.6254940140026894
},
{
"acceleration": 0.9096406749914967,
"curvature": 1.7613530158608193,
"pose": {
"rotation": {
"radians": -1.7653430146065259
},
"translation": {
"x": 5.138652135245538,
"y": 2.1363288398186144
}
},
"time": 2.767736601772046,
"velocity": 0.6701864714351786
},
{
"acceleration": 0.8985515650633472,
"curvature": 1.4300019085847844,
"pose": {
"rotation": {
"radians": -1.7116738015431083
},
"translation": {
"x": 5.1330505281363354,
"y": 2.1030541783979206
}
},
"time": 2.816473121322754,
"velocity": 0.7145191919760208
},
{
"acceleration": 0.864464739404705,
"curvature": 1.1460428859369258,
"pose": {
"rotation": {
"radians": -1.6665326707197734
},
"translation": {
"x": 5.128928319085798,
"y": 2.0681257231043055
}
},
"time": 2.864260344795532,
"velocity": 0.7574584764175174
},
{
"acceleration": 0.8561170628262652,
"curvature": 0.6921498499878035,
"pose": {
"rotation": {
"radians": -1.5992445268247777
},
"translation": {
"x": 5.124526803218814,
"y": 1.9939795580951039
}
},
"time": 2.9573733376004068,
"velocity": 0.8379513754777759
},
{
"acceleration": 1.010000168224981,
"curvature": 0.3339785170807606,
"pose": {
"rotation": {
"radians": -1.55946392339407
},
"translation": {
"x": 5.1240381700909,
"y": 1.9154735230456783
}
},
"time": 3.046963049650578,
"velocity": 0.9146506566176195
},
{
"acceleration": -1.8066528357814164,
"curvature": 1.4317257930815568e-14,
"pose": {
"rotation": {
"radians": -1.54589044577464
},
"translation": {
"x": 5.125685137254915,
"y": 1.8345921960784244
}
},
"time": 3.1314673359541865,
"velocity": 0.999999999999996
},
{
"acceleration": -0.9986131262800134,
"curvature": 0.6784256188699492,
"pose": {
"rotation": {
"radians": -1.5176720794344714
},
"translation": {
"x": 5.128479582136202,
"y": 1.7534671837285511
}
},
"time": 3.2196677166437455,
"velocity": 0.8406525321102035
},
{
"acceleration": -0.6583569794596956,
"curvature": 1.2644247414560374,
"pose": {
"rotation": {
"radians": -1.438934211336127
},
"translation": {
"x": 5.135593989290498,
"y": 1.6733425392849135
}
},
"time": 3.3215162716199957,
"velocity": 0.7389452282182682
},
{
"acceleration": -0.48012094493644963,
"curvature": 1.5158557169528848,
"pose": {
"rotation": {
"radians": -1.3833186084962206
},
"translation": {
"x": 5.141907970175308,
"y": 1.6339249715037356
}
},
"time": 3.376906012873368,
"velocity": 0.7024790054736441
},
{
"acceleration": -0.3178701652295969,
"curvature": 1.7254940383646689,
"pose": {
"rotation": {
"radians": -1.3186164203674344
},
"translation": {
"x": 5.150563467499449,
"y": 1.5950602644308347
}
},
"time": 3.434729113519046,
"velocity": 0.6747169237524857
},
{
"acceleration": -0.1667073283179762,
"curvature": 1.8796391853508685,
"pose": {
"rotation": {
"radians": -1.246522612973728
},
"translation": {
"x": 5.1618772516141584,
"y": 1.556828296598086
}
},
"time": 3.4946681146670056,
"velocity": 0.6556641035538868
},
{
"acceleration": -0.026661245955769096,
"curvature": 1.966646195109677,
"pose": {
"rotation": {
"radians": -1.1690660401724107
},
"translation": {
"x": 5.176119478163774,
"y": 1.519299440739652
}
},
"time": 3.5563732232081526,
"velocity": 0.6453774097654215
},
{
"acceleration": 0.09940822580739661,
"curvature": 1.9811410462739532,
"pose": {
"rotation": {
"radians": -1.0885145755382546
},
"translation": {
"x": 5.193515494712941,
"y": 1.4825349021465604
}
},
"time": 3.6194767467938185,
"velocity": 0.6436949912024283
},
{
"acceleration": 0.20731205024489852,
"curvature": 1.9265962206000136,
"pose": {
"rotation": {
"radians": -1.0071925610068906
},
"translation": {
"x": 5.214247647373817,
"y": 1.446587057021282
}
},
"time": 3.6836271325402508,
"velocity": 0.6500720672343413
},
{
"acceleration": 0.2928705466852405,
"curvature": 1.8149490418124694,
"pose": {
"rotation": {
"radians": -0.9272602233886487
},
"translation": {
"x": 5.238457087433276,
"y": 1.4114997908323161
}
},
"time": 3.7485309104641145,
"velocity": 0.663527402504377
},
{
"acceleration": 0.3531981056258752,
"curvature": 1.6634841447153172,
"pose": {
"rotation": {
"radians": -0.8505208558760028
},
"translation": {
"x": 5.266245577980115,
"y": 1.3773088366687647
}
},
"time": 3.813986977931966,
"velocity": 0.6826975567675526
},
{
"acceleration": 0.38769760947184795,
"curvature": 1.490600213001945,
"pose": {
"rotation": {
"radians": -0.7783063831860212
},
"translation": {
"x": 5.297677300532256,
"y": 1.3440421135949139
}
},
"time": 3.879901711406157,
"velocity": 0.7059785157634714
},
{
"acceleration": 0.39840342938560086,
"curvature": 1.3122902954622302,
"pose": {
"rotation": {
"radians": -0.7114562200889389
},
"translation": {
"x": 5.332780661663959,
"y": 1.311720065004815
}
},
"time": 3.946282394142053,
"velocity": 0.7317141477752874
},
{
"acceleration": 0.38953393379826773,
"curvature": 1.1403004965501402,
"pose": {
"rotation": {
"radians": -0.6503709769114506
},
"translation": {
"x": 5.371550099633015,
"y": 1.280355996976862
}
},
"time": 4.013214488839479,
"velocity": 0.7583801238387036
},
{
"acceleration": 0.3664894665061633,
"curvature": 0.9818934811686313,
"pose": {
"rotation": {
"radians": -0.5951069928427168
},
"translation": {
"x": 5.413947891007964,
"y": 1.2499564166283728
}
},
"time": 4.080831627563011,
"velocity": 0.7847192938778642
},
{
"acceleration": 0.33474541375764194,
"curvature": 0.8405938478795086,
"pose": {
"rotation": {
"radians": -0.5454799449917829
},
"translation": {
"x": 5.459905957295291,
"y": 1.2205213704701672
}
},
"time": 4.149286106923945,
"velocity": 0.8098071394988102
},
{
"acceleration": 0.2806288952169144,
"curvature": 0.717273455764298,
"pose": {
"rotation": {
"radians": -0.5011570098442498
},
"translation": {
"x": 5.509327671566637,
"y": 1.1920447827611493
}
},
"time": 4.218724559376854,
"velocity": 0.8330513429958496
},
{
"acceleration": 0.22864087611568168,
"curvature": 0.520647964415194,
"pose": {
"rotation": {
"radians": -0.42675979773137707
},
"translation": {
"x": 5.618043633936936,
"y": 1.137914098594182
}
},
"time": 4.361095793298859,
"velocity": 0.8730048250820508
},
{
"acceleration": 0.19767432879734187,
"curvature": 0.4437479075907038,
"pose": {
"rotation": {
"radians": -0.3958219385632556
},
"translation": {
"x": 5.677018145649784,
"y": 1.1122202845856686
}
},
"time": 4.434084559828982,
"velocity": 0.889693040608101
},
{
"acceleration": 0.1705539439601388,
"curvature": 0.37846636489363894,
"pose": {
"rotation": {
"radians": -0.36851337710361654
},
"translation": {
"x": 5.7388204458288445,
"y": 1.0874061706343765
}
},
"time": 4.508327016679495,
"velocity": 0.9043688684342917
},
{
"acceleration": 0.14737384060864214,
"curvature": 0.3229350098994601,
"pose": {
"rotation": {
"radians": -0.3444689571856636
},
"translation": {
"x": 5.803238264779605,
"y": 1.0634401450583173
}
},
"time": 4.583789511904855,
"velocity": 0.9172392946160499
},
{
"acceleration": 0.12794369225403485,
"curvature": 0.2754889353392715,
"pose": {
"rotation": {
"radians": -0.3233642451638667
},
"translation": {
"x": 5.870041624135932,
"y": 1.0402865040510623
}
},
"time": 4.660399374691461,
"velocity": 0.9285295843234131
},
{
"acceleration": 0.11193642998193122,
"curvature": 0.23468400355434366,
"pose": {
"rotation": {
"radians": -0.3049159918480088
},
"translation": {
"x": 5.938984643487285,
"y": 1.017905790036325
}
},
"time": 4.738047978185887,
"velocity": 0.9384642333528596
},
{
"acceleration": 0.09898465120657386,
"curvature": 0.19928548070578958,
"pose": {
"rotation": {
"radians": -0.28888058216354784
},
"translation": {
"x": 6.0098073470059195,
"y": 0.9962551300225373
}
},
"time": 4.8165942130536825,
"velocity": 0.9472564184724829
},
{
"acceleration": 0.08873908435578091,
"curvature": 0.16824320148765123,
"pose": {
"rotation": {
"radians": -0.2750515305433509
},
"translation": {
"x": 6.082237470074087,
"y": 0.9752885739574326
}
},
"time": 4.89586808205014,
"velocity": 0.9551033147448929
},
{
"acceleration": 0.0809019912307553,
"curvature": 0.14066182597681764,
"pose": {
"rotation": {
"radians": -0.263256683654428
},
"translation": {
"x": 6.15599226591125,
"y": 0.9549574330826216
}
},
"time": 4.975674243547524,
"velocity": 0.9621852404421203
},
{
"acceleration": 0.07524587945318749,
"curvature": 0.1157705718985228,
"pose": {
"rotation": {
"radians": -0.25335553026068
},
"translation": {
"x": 6.230780312201276,
"y": 0.9352106182881759
}
},
"time": 5.055795408408716,
"velocity": 0.9686672022191184
},
{
"acceleration": 0.07162525707371901,
"curvature": 0.0928943137392673,
"pose": {
"rotation": {
"radians": -0.2452368531108259
},
"translation": {
"x": 6.30630331771965,
"y": 0.9159949784672028
}
},
"time": 5.135995541757946,
"velocity": 0.9747019317852441
},
{
"acceleration": 0.06998718308957709,
"curvature": 0.07142649876794276,
"pose": {
"rotation": {
"radians": -0.23881685949887754
},
"translation": {
"x": 6.382257928960682,
"y": 0.8972556388704325
}
},
"time": 5.2160228484871665,
"velocity": 0.9804339082026419
},
{
"acceleration": 0.07038530230114556,
"curvature": 0.05080349903054213,
"pose": {
"rotation": {
"radians": -0.2340378737100491
},
"translation": {
"x": 6.458337536764702,
"y": 0.8789363394607888
}
},
"time": 5.29561253551285,
"velocity": 0.9860041662005505
},
{
"acceleration": 0.07300198620419505,
"curvature": 0.030479509150927866,
"pose": {
"rotation": {
"radians": -0.2308676511547432
},
"translation": {
"x": 6.534234082945275,
"y": 0.8609797732679754
}
},
"time": 5.374489349419692,
"velocity": 0.9915559345919348
},
{
"acceleration": -0.005862879424322933,
"curvature": 0.009900724754548054,
"pose": {
"rotation": {
"radians": -0.2292993711944804
},
"translation": {
"x": 6.609639866916403,
"y": 0.8433279247430523
}
},
"time": 5.452369888098722,
"velocity": 0.9972413686021566
},
{
"acceleration": -0.08323206684417438,
"curvature": -0.011522832205459323,
"pose": {
"rotation": {
"radians": -0.229352377931071
},
"translation": {
"x": 6.684249352319725,
"y": 0.8259224081130183
}
},
"time": 5.529212016964256,
"velocity": 0.9967908524659097
},
{
"acceleration": -0.09134471263747028,
"curvature": -0.03444993547790133,
"pose": {
"rotation": {
"radians": -0.23107376274222327
},
"translation": {
"x": 6.757760973651733,
"y": 0.8087048057353874
}
},
"time": 5.605197166664572,
"velocity": 0.9904664514068884
},
{
"acceleration": -0.10298421667250204,
"curvature": -0.05964796220832344,
"pose": {
"rotation": {
"radians": -0.2345409181734371
},
"translation": {
"x": 6.829878942890965,
"y": 0.7916170064527694
}
},
"time": 5.680285271597852,
"velocity": 0.9836075500392657
},
{
"acceleration": -0.11896192007422986,
"curvature": -0.08804355334561607,
"pose": {
"rotation": {
"radians": -0.23986524025080716
},
"translation": {
"x": 6.900315056125223,
"y": 0.7746015439474503
}
},
"time": 5.754241442214564,
"velocity": 0.9759912317402057
},
{
"acceleration": -0.14038703472308095,
"curvature": -0.12078912972640582,
"pose": {
"rotation": {
"radians": -0.24719721625680427
},
"translation": {
"x": 6.9687905001787644,
"y": 0.7576019350959742
}
},
"time": 5.8268523901666205,
"velocity": 0.9673532939534192
},
{
"acceleration": -0.16872838113477392,
"curvature": -0.15935215697974728,
"pose": {
"rotation": {
"radians": -0.25673320800104593
},
"translation": {
"x": 7.035037659239521,
"y": 0.7405630183237166
}
},
"time": 5.897930788124732,
"velocity": 0.9573748084312128
},
{
"acceleration": -0.20586817923923975,
"curvature": -0.20563665070684178,
"pose": {
"rotation": {
"radians": -0.26872432483790004
},
"translation": {
"x": 7.098801921486292,
"y": 0.7234312919594714
}
},
"time": 5.9673203155143435,
"velocity": 0.9456668258070566
},
{
"acceleration": -0.28435095034962965,
"curvature": -0.26214980823863127,
"pose": {
"rotation": {
"radians": -0.2834878682636559
},
"translation": {
"x": 7.159843485715956,
"y": 0.7061552525900252
}
},
"time": 6.034901557787931,
"velocity": 0.9317539985094672
},
{
"acceleration": -0.44132478822548427,
"curvature": -0.4203612645329272,
"pose": {
"rotation": {
"radians": -0.32302347731434494
},
"translation": {
"x": 7.272884208165107,
"y": 0.6709762426001298
}
},
"time": 6.164524902690217,
"velocity": 0.8948954771990043
},
{
"acceleration": -0.6670744769849443,
"curvature": -0.6770148274504229,
"pose": {
"rotation": {
"radians": -0.3798499974077029
},
"translation": {
"x": 7.372606281157363,
"y": 0.6346667836822464
}
},
"time": 6.286802852948141,
"velocity": 0.8409311866967797
},
{
"acceleration": -0.8616706117583749,
"curvature": -1.1090349824900552,
"pose": {
"rotation": {
"radians": -0.4608488640853585
},
"translation": {
"x": 7.457808753293498,
"y": 0.5969212979856078
}
},
"time": 6.4029718432171325,
"velocity": 0.7634378182712231
},
{
"acceleration": -0.9711055005817879,
"curvature": -1.4280600003220416,
"pose": {
"rotation": {
"radians": -0.5134052904511927
},
"translation": {
"x": 7.4947004813476825,
"y": 0.5774318801430747
}
},
"time": 6.459422087893567,
"velocity": 0.7147963014069697
},
{
"acceleration": -1.0338867028222263,
"curvature": -1.840949595765645,
"pose": {
"rotation": {
"radians": -0.5759920955696884
},
"translation": {
"x": 7.527701079275228,
"y": 0.5574986618270046
}
},
"time": 6.515494174267728,
"velocity": 0.6603443898999253
},
{
"acceleration": -1.0364365434464824,
"curvature": -2.364625759701951,
"pose": {
"rotation": {
"radians": -0.6502326975178769
},
"translation": {
"x": 7.556785339659949,
"y": 0.5371033499022229
}
},
"time": 6.571767389216891,
"velocity": 0.6021642612389284
},
{
"acceleration": -1.0096840782714602,
"curvature": -2.670244852337298,
"pose": {
"rotation": {
"radians": -0.6921967622783213
},
"translation": {
"x": 7.56985990633087,
"y": 0.5267281545669125
}
},
"time": 6.60018047383688,
"velocity": 0.5727159020267348
},
{
"acceleration": -0.9605777311134531,
"curvature": -3.0032311764680686,
"pose": {
"rotation": {
"radians": -0.7375876085956649
},
"translation": {
"x": 7.581960931975787,
"y": 0.5162330330373432
}
},
"time": 6.628875097259233,
"velocity": 0.5437433976251888
},
{
"acceleration": -0.8900115067786348,
"curvature": -3.359139596521303,
"pose": {
"rotation": {
"radians": -0.7864873634779768
},
"translation": {
"x": 7.593094808692791,
"y": 0.5056172678152322
}
},
"time": 6.657912018914032,
"velocity": 0.5158511773035033
},
{
"acceleration": -0.8001668689938634,
"curvature": -3.7301850328253767,
"pose": {
"rotation": {
"radians": -0.8388976458684196
},
"translation": {
"x": 7.603270209214023,
"y": 0.4948805200593531
}
},
"time": 6.687334623526643,
"velocity": 0.48966472063888117
},
{
"acceleration": -0.6941303583831889,
"curvature": -4.1046998200580225,
"pose": {
"rotation": {
"radians": -0.8947140783039366
},
"translation": {
"x": 7.6124981433627505,
"y": 0.4840228401591258
}
},
"time": 6.7171617411500675,
"velocity": 0.4657980493190337
},
{
"acceleration": -0.5753541286598951,
"curvature": -4.467032921282684,
"pose": {
"rotation": {
"radians": -0.9537018957560295
},
"translation": {
"x": 7.620792014510479,
"y": 0.4730446783081881
}
},
"time": 6.747380563745479,
"velocity": 0.44482224716096264
},
{
"acceleration": -0.447085882589079,
"curvature": -4.798170164335112,
"pose": {
"rotation": {
"radians": -1.0154769887666135
},
"translation": {
"x": 7.628167676034043,
"y": 0.46194689507797904
}
},
"time": 6.7779408116700886,
"velocity": 0.42723928234466896
},
{
"acceleration": -0.31189694799686246,
"curvature": -5.077268805121393,
"pose": {
"rotation": {
"radians": -1.0794975753156733
},
"translation": {
"x": 7.63464348777272,
"y": 0.45073077199131717
}
},
"time": 6.8087515629001745,
"velocity": 0.41346423043773345
},
{
"acceleration": -0.17139724930771655,
"curvature": -5.284068339492993,
"pose": {
"rotation": {
"radians": -1.145071359431042
},
"translation": {
"x": 7.64024037248531,
"y": 0.439398022095987
}
},
"time": 6.839682100755637,
"velocity": 0.40381709008071304
},
{
"acceleration": -0.026162446942261493,
"curvature": -5.401800112977765,
"pose": {
"rotation": {
"radians": -1.2113809840511371
},
"translation": {
"x": 7.644981872307262,
"y": 0.4279508005383157
}
},
"time": 6.8705676095872,
"velocity": 0.39852339882351406
},
{
"acceleration": 0.12416374822797271,
"curvature": -5.4199083936881,
"pose": {
"rotation": {
"radians": -1.2775268981335326
},
"translation": {
"x": 7.6488942052077435,
"y": 0.41639171513675244
}
},
"time": 6.901219560370139,
"velocity": 0.3977214687874786
},
{
"acceleration": 0.2806723730416409,
"curvature": -5.335802791801388,
"pose": {
"rotation": {
"radians": -1.342582385187447
},
"translation": {
"x": 7.652006321446776,
"y": 0.40472383695545133
}
},
"time": 6.931439432709985,
"velocity": 0.4014736814081648
},
{
"acceleration": 0.44499663937748296,
"curvature": -5.155098035702119,
"pose": {
"rotation": {
"radians": -1.4056520432502355
},
"translation": {
"x": 7.6543499600323,
"y": 0.3929507108778525
}
},
"time": 6.961033459215975,
"velocity": 0.4097799070554581
},
{
"acceleration": 0.6192237153910255,
"curvature": -4.890287960249933,
"pose": {
"rotation": {
"radians": -1.4659239403300142
},
"translation": {
"x": 7.655959705177298,
"y": 0.3810763661802614
}
},
"time": 6.989825768934245,
"velocity": 0.4225923881200039
},
{
"acceleration": 0.8060013473228748,
"curvature": -4.558307425718424,
"pose": {
"rotation": {
"radians": -1.522707476214723
},
"translation": {
"x": 7.656873042756886,
"y": 0.36910532710542565
}
},
"time": 7.017667789593137,
"velocity": 0.4398328275963965
},
{
"acceleration": 1.008922072865666,
"curvature": -4.1777139375037535,
"pose": {
"rotation": {
"radians": -1.5754528453411685
},
"translation": {
"x": 7.657130416765425,
"y": 0.35704262343612747
}
},
"time": 7.044442819227072,
"velocity": 0.46141353755595793
},
{
"acceleration": 1.2332751922989877,
"curvature": -3.7661796685410525,
"pose": {
"rotation": {
"radians": -1.6237523116436448
},
"translation": {
"x": 7.656775285773596,
"y": 0.3448938010687499
}
},
"time": 7.070065849654738,
"velocity": 0.4872651785281393
},
{
"acceleration": 0.828018475024676,
"curvature": -3.3387170002058637,
"pose": {
"rotation": {
"radians": -1.667326792238405
},
"translation": {
"x": 7.655854179385524,
"y": 0.3326649325868676
}
},
"time": 7.0944796070918565,
"velocity": 0.517374059926142
},
{
"acceleration": -1.9999999999999996,
"curvature": -2.477837674448722,
"pose": {
"rotation": {
"radians": -1.7396846582757963
},
"translation": {
"x": 7.652515852746954,
"y": 0.3079940444913021
}
},
"time": 7.140876411136539,
"velocity": 0.5557914708572383
},
{
"acceleration": -1.9999999999999998,
"curvature": -1.6420848895741609,
"pose": {
"rotation": {
"radians": -1.7919031173288857
},
"translation": {
"x": 7.647551239721234,
"y": 0.2830894753578397
}
},
"time": 7.191106921308547,
"velocity": 0.45533045051322174
},
{
"acceleration": -1.9999999999999998,
"curvature": -4.6733204416778577e-14,
"pose": {
"rotation": {
"radians": -1.8346152907227427
},
"translation": {
"x": 7.63475192156861,
"y": 0.23286321568628665
}
},
"time": 7.418772146565158,
"velocity": 0.0
}
]